<?xml version="1.0" encoding="UTF-8" standalone="no"?>
<!-- Created with Inkscape (http://www.inkscape.org/) -->

<svg
   width="149.08852mm"
   height="102.53538mm"
   viewBox="0 0 149.08852 102.53537"
   version="1.1"
   id="svg8"
   inkscape:version="1.4-dev (1:1.2.0-alpha1+devel+202305282223+1313106632)"
   sodipodi:docname="gimp_2.9_logo.svg"
   inkscape:export-filename="gimp_2.9_logo_samples.png"
   inkscape:export-xdpi="99.008568"
   inkscape:export-ydpi="99.008568"
   xmlns:inkscape="http://www.inkscape.org/namespaces/inkscape"
   xmlns:sodipodi="http://sodipodi.sourceforge.net/DTD/sodipodi-0.dtd"
   xmlns:xlink="http://www.w3.org/1999/xlink"
   xmlns="http://www.w3.org/2000/svg"
   xmlns:svg="http://www.w3.org/2000/svg"
   xmlns:rdf="http://www.w3.org/1999/02/22-rdf-syntax-ns#"
   xmlns:cc="http://creativecommons.org/ns#"
   xmlns:dc="http://purl.org/dc/elements/1.1/">
  <defs
     id="defs2">
    <inkscape:path-effect
       effect="fillet_chamfer"
       id="path-effect52"
       nodesatellites_param="F,0,0,1,0,4.2333333,0,1 @ F,0,0,1,0,4.2333333,0,1 @ F,0,0,1,0,4.2333333,0,1"
       is_visible="true"
       lpeversion="1"
       radius="16"
       unit="px"
       method="auto"
       mode="F"
       chamfer_steps="1"
       flexible="false"
       use_knot_distance="true"
       apply_no_radius="true"
       apply_with_radius="true"
       only_selected="false"
       hide_knots="false" />
    <linearGradient
       inkscape:collect="always"
       id="linearGradient6104">
      <stop
         style="stop-color:#000000;stop-opacity:1"
         offset="0"
         id="stop6100" />
      <stop
         style="stop-color:#999999;stop-opacity:0;"
         offset="1"
         id="stop6102" />
    </linearGradient>
    <clipPath
       clipPathUnits="userSpaceOnUse"
       id="clipPath3369">
      <path
         d="M 0,113.39 H 113.39 V 0 H 0 Z"
         id="path3371"
         inkscape:connector-curvature="0" />
    </clipPath>
    <linearGradient
       id="linearGradient4469">
      <stop
         style="stop-color:#b88015;stop-opacity:1"
         offset="0"
         id="stop4471" />
      <stop
         id="stop4481"
         offset="0.24904591"
         style="stop-color:#ffd282;stop-opacity:1" />
      <stop
         id="stop4477"
         offset="0.50307143"
         style="stop-color:#ffed8b;stop-opacity:1" />
      <stop
         style="stop-color:#ffb224;stop-opacity:1"
         offset="0.55076879"
         id="stop4479" />
      <stop
         id="stop4499"
         offset="0.84848362"
         style="stop-color:#6b2d16;stop-opacity:1" />
      <stop
         style="stop-color:#703409;stop-opacity:1"
         offset="1"
         id="stop4473" />
    </linearGradient>
    <linearGradient
       id="linearGradient4487">
      <stop
         id="stop4489"
         offset="0"
         style="stop-color:#d1d1d1;stop-opacity:0.81818181" />
      <stop
         style="stop-color:#e4e3e4;stop-opacity:0.95294118;"
         offset="0.22649455"
         id="stop4501" />
      <stop
         style="stop-color:#ebeaeb;stop-opacity:1"
         offset="0.5023331"
         id="stop4491" />
      <stop
         style="stop-color:#c4c2c1;stop-opacity:1"
         offset="0.5531739"
         id="stop4493" />
      <stop
         id="stop4495"
         offset="0.84136629"
         style="stop-color:#545454;stop-opacity:1" />
      <stop
         id="stop4497"
         offset="1"
         style="stop-color:#706f6f;stop-opacity:1" />
    </linearGradient>
    <linearGradient
       id="linearGradient4509">
      <stop
         style="stop-color:#d1d1d1;stop-opacity:0.81818181"
         offset="0"
         id="stop4511" />
      <stop
         id="stop4513"
         offset="0.22599643"
         style="stop-color:#e4e3e4;stop-opacity:0.95294118;" />
      <stop
         id="stop4515"
         offset="0.54509753"
         style="stop-color:#ebeaeb;stop-opacity:1" />
      <stop
         id="stop4517"
         offset="0.59983265"
         style="stop-color:#c4c2c1;stop-opacity:1" />
      <stop
         style="stop-color:#545454;stop-opacity:1"
         offset="0.84092551"
         id="stop4519" />
      <stop
         style="stop-color:#706f6f;stop-opacity:1"
         offset="1"
         id="stop4521" />
    </linearGradient>
    <linearGradient
       inkscape:collect="always"
       xlink:href="#linearGradient6104"
       id="linearGradient6106"
       x1="965.86908"
       y1="97.331566"
       x2="1051.7424"
       y2="182.96545"
       gradientUnits="userSpaceOnUse" />
    <clipPath
       clipPathUnits="userSpaceOnUse"
       id="clipPath6154">
      <rect
         ry="83.275909"
         rx="83.189186"
         y="23.736122"
         x="895.11072"
         height="166.55183"
         width="166.37837"
         id="rect6156"
         style="opacity:0.5;vector-effect:none;fill:#999999;fill-opacity:1;fill-rule:evenodd;stroke:none;stroke-width:1.58386;paint-order:stroke markers fill" />
    </clipPath>
    <clipPath
       clipPathUnits="userSpaceOnUse"
       id="clipPath6526">
      <rect
         style="opacity:0.5;vector-effect:none;fill:#999999;fill-opacity:1;fill-rule:evenodd;stroke:none;stroke-width:1.58386;paint-order:stroke markers fill"
         id="rect6528"
         width="166.37836"
         height="166.55183"
         x="888.3761"
         y="12.584932"
         rx="83.189178"
         ry="83.275909" />
    </clipPath>
    <clipPath
       clipPathUnits="userSpaceOnUse"
       id="clipPath6569">
      <rect
         ry="33.224518"
         rx="33.189919"
         y="15.17492"
         x="893.40027"
         height="166.55183"
         width="166.37837"
         id="rect6571"
         style="opacity:0.5;vector-effect:none;fill:#999999;fill-opacity:1;fill-rule:evenodd;stroke:none;stroke-width:1.58386;paint-order:stroke markers fill" />
    </clipPath>
    <clipPath
       clipPathUnits="userSpaceOnUse"
       id="clipPath11448">
      <rect
         ry="29.340349"
         rx="29.309797"
         y="12.584934"
         x="888.3761"
         height="166.55185"
         width="166.37837"
         id="rect11450"
         style="opacity:0.5;vector-effect:none;fill:#999999;fill-opacity:1;fill-rule:evenodd;stroke:none;stroke-width:1.58386;paint-order:stroke markers fill" />
    </clipPath>
    <clipPath
       clipPathUnits="userSpaceOnUse"
       id="clipPath11448-9">
      <rect
         ry="29.340349"
         rx="29.309797"
         y="12.584934"
         x="888.3761"
         height="166.55185"
         width="166.37837"
         id="rect11450-3"
         style="opacity:0.5;vector-effect:none;fill:#999999;fill-opacity:1;fill-rule:evenodd;stroke:none;stroke-width:1.58386;paint-order:stroke markers fill" />
    </clipPath>
  </defs>
  <sodipodi:namedview
     id="base"
     pagecolor="#ffffff"
     bordercolor="#666666"
     borderopacity="1.0"
     inkscape:pageopacity="0.0"
     inkscape:pageshadow="2"
     inkscape:zoom="1.4781785"
     inkscape:cx="296.64889"
     inkscape:cy="213.77662"
     inkscape:document-units="mm"
     inkscape:current-layer="g11668"
     showgrid="false"
     inkscape:window-width="1920"
     inkscape:window-height="1016"
     inkscape:window-x="0"
     inkscape:window-y="0"
     inkscape:window-maximized="1"
     inkscape:snap-global="false"
     showguides="true"
     inkscape:guide-bbox="true"
     inkscape:snap-page="false"
     inkscape:showpageshadow="2"
     inkscape:pagecheckerboard="0"
     inkscape:deskcolor="#d1d1d1" />
  <metadata
     id="metadata5">
    <rdf:RDF>
      <cc:Work
         rdf:about="">
        <dc:format>image/svg+xml</dc:format>
        <dc:type
           rdf:resource="http://purl.org/dc/dcmitype/StillImage" />
      </cc:Work>
    </rdf:RDF>
  </metadata>
  <g
     inkscape:label="Layer 1"
     inkscape:groupmode="layer"
     id="layer1"
     transform="translate(-68.467931,-286.20192)">
    <g
       id="g11668"
       transform="matrix(0.3186781,0,0,0.3186781,-148.80374,64.689933)">
      <g
         id="g65"
         transform="translate(31.314399,20.649327)">
        <g
           style="fill:#999999;stroke:none;stroke-width:0.983384"
           id="g30"
           transform="matrix(1.25,0,0,-1.2925975,1071.2316,715.54822)">
          <path
             sodipodi:nodetypes="ccccccccc"
             inkscape:connector-curvature="0"
             id="path30"
             d="m -29.154476,-53.505432 c -13.768026,0.208683 -24.444447,7.709617 -29.650229,9.884024 -0.857972,0.581405 2.730477,0.774131 2.429705,1.765939 -0.817393,2.696473 -3.997632,6.622671 -4.021763,10.169086 0.034,3.137385 9.606984,5.870664 8.199497,10.777901 -2.613085,5.006641 -2.223981,16.6888725 7.055294,23.0186978 3.009189,-10.2756709 7.848023,-19.2637528 16.920757,-19.4999988 15.21119,0.57963 24.9442129,17.79283125 28.01799098,24.1974853 C 16.504898,-8.2051957 10.232371,-52.829581 -29.154476,-53.505432 Z"
             style="fill:#000000;stroke:none;stroke-width:5.90031;stroke-linecap:butt;stroke-linejoin:miter;stroke-miterlimit:10;stroke-dasharray:none;stroke-opacity:1" />
        </g>
        <g
           transform="translate(112.58667,671.28574)"
           id="g41">
          <path
             inkscape:connector-curvature="0"
             d="m 899.43659,137.88685 c -1.11099,0.5555 -2.27488,0.87292 -3.2007,0.87292 -3.01554,0 -5.29042,-2.30133 -5.29042,-5.34332 0,-3.01554 2.24843,-5.31687 5.23751,-5.31687 1.69294,0 3.57104,0.79356 4.89364,2.03681 l 2.75102,-3.38587 c -1.90455,-1.69293 -4.84074,-2.75102 -7.6182,-2.75102 -5.87237,0 -10.23696,4.02072 -10.23696,9.41695 0,5.39622 4.25878,9.46984 9.91953,9.46984 2.59231,0 5.7401,-1.00517 7.72401,-2.38068 v -7.30078 h -4.17943 z"
             style="font-style:normal;font-variant:normal;font-weight:bold;font-stretch:normal;font-size:40px;line-height:32.195px;font-family:Montserrat;-inkscape-font-specification:'Montserrat Bold';letter-spacing:0px;word-spacing:0px;fill:#000000;fill-opacity:1;stroke:none;stroke-width:0.9375px;stroke-linecap:butt;stroke-linejoin:miter;stroke-opacity:1"
             id="path38" />
          <path
             inkscape:connector-curvature="0"
             d="m 911.63596,124.13176 h -4.84073 v 18.54292 h 4.84073 z"
             style="font-style:normal;font-variant:normal;font-weight:bold;font-stretch:normal;font-size:40px;line-height:32.195px;font-family:Montserrat;-inkscape-font-specification:'Montserrat Bold';letter-spacing:0px;word-spacing:0px;fill:#000000;fill-opacity:1;stroke:none;stroke-width:0.9375px;stroke-linecap:butt;stroke-linejoin:miter;stroke-opacity:1"
             id="path39" />
          <path
             inkscape:connector-curvature="0"
             d="m 935.63752,124.13176 h -5.29042 l -4.92009,10.81891 -4.92009,-10.81891 h -5.29041 v 18.54292 h 4.31169 v -11.74473 l 4.31168,9.89308 h 3.17425 l 4.31169,-9.89308 0.0265,11.74473 h 4.28524 z"
             style="font-style:normal;font-variant:normal;font-weight:bold;font-stretch:normal;font-size:40px;line-height:32.195px;font-family:Montserrat;-inkscape-font-specification:'Montserrat Bold';letter-spacing:0px;word-spacing:0px;fill:#000000;fill-opacity:1;stroke:none;stroke-width:0.9375px;stroke-linecap:butt;stroke-linejoin:miter;stroke-opacity:1"
             id="path40" />
          <path
             inkscape:connector-curvature="0"
             d="m 947.3876,124.13176 h -8.14724 v 18.54292 h 4.84073 v -5.13171 h 3.30651 c 4.73493,0 7.45949,-2.5394 7.45949,-6.90399 0,-4.12653 -2.72456,-6.50722 -7.45949,-6.50722 z m -0.23807,3.86201 c 1.95746,0 3.0949,0.97873 3.0949,2.80392 0,1.8781 -1.13744,2.88328 -3.0949,2.88328 h -3.06844 v -5.6872 z"
             style="font-style:normal;font-variant:normal;font-weight:bold;font-stretch:normal;font-size:40px;line-height:32.195px;font-family:Montserrat;-inkscape-font-specification:'Montserrat Bold';letter-spacing:0px;word-spacing:0px;fill:#000000;fill-opacity:1;stroke:none;stroke-width:0.9375px;stroke-linecap:butt;stroke-linejoin:miter;stroke-opacity:1"
             id="path41" />
        </g>
        <g
           transform="matrix(1.25,0,0,-1.25,1071.2316,716.40009)"
           id="g31"
           style="fill:#999999;stroke:none">
          <path
             inkscape:connector-curvature="0"
             id="path31"
             style="fill:#999999;stroke:none;stroke-width:6;stroke-linecap:butt;stroke-linejoin:miter;stroke-miterlimit:10;stroke-dasharray:none;stroke-opacity:1"
             d="M 0.46236512,1.6052383 C -10.278212,-13.111312 -19.607056,-21.718155 -30.892653,-19.631702 c -6.707709,1.595669 -9.848756,3.909163 -14.774329,13.2229128 -2.305472,5.6122625 -8.244016,-7.0152438 -3.579732,-14.6086398 0.321193,-9.43979 -18.415657,-10.611839 -16.728862,-16.176357 4.618462,-3.835407 10.343097,-5.308403 15.031276,-8.267753 10.807377,-6.822015 24.611165,-7.942989 35.175302,-3.895968 14.5333303,5.567582 29.444385,29.676766 16.23136312,50.9627453 z"
             sodipodi:nodetypes="cccccssc" />
        </g>
        <ellipse
           transform="matrix(0.73293555,-0.68029808,0.64725028,0.76227756,0,0)"
           ry="16.761148"
           rx="12.889563"
           cy="1234.9558"
           cx="268.2717"
           id="ellipse31"
           style="opacity:1;fill:#000000;fill-opacity:1;fill-rule:evenodd;stroke:none;stroke-width:0.937958;stroke-linejoin:miter;stroke-miterlimit:4;stroke-dasharray:none;stroke-opacity:1" />
        <path
           sodipodi:nodetypes="cccc"
           inkscape:connector-curvature="0"
           id="path11648-1"
           d="m 1032.5274,772.03746 c 6.9004,-1.31801 20.9313,-4.19716 24.442,-16.07143 2.5246,1.90166 3.0705,9.16424 -2.5636,14.12344 -3.9242,2.74097 -17.322,3.56302 -21.8784,1.94799 z"
           style="fill:#000000;stroke:none;stroke-width:0.9375px;stroke-linecap:butt;stroke-linejoin:miter;stroke-opacity:1" />
        <path
           inkscape:connector-curvature="0"
           id="path33"
           d="m 1083.2483,787.34684 v 0.004 c 10e-5,0 0.01,-0.63799 0.01,0.20875 a 4.0274332,4.0274332 0 0 0 -0.01,-0.21241 z"
           style="color:#000000;display:inline;overflow:visible;visibility:visible;fill:#000000;fill-opacity:1;fill-rule:nonzero;stroke:none;stroke-width:2.53125;marker:none;enable-background:accumulate" />
        <g
           id="g35"
           transform="translate(99.122512,165.32635)">
          <path
             style="color:#000000;font-style:normal;font-variant:normal;font-weight:normal;font-stretch:normal;font-size:medium;line-height:normal;font-family:sans-serif;font-variant-ligatures:normal;font-variant-position:normal;font-variant-caps:normal;font-variant-numeric:normal;font-variant-alternates:normal;font-variant-east-asian:normal;font-feature-settings:normal;text-indent:0;text-align:start;text-decoration:none;text-decoration-line:none;text-decoration-style:solid;text-decoration-color:#000000;letter-spacing:normal;word-spacing:normal;text-transform:none;writing-mode:lr-tb;direction:ltr;text-orientation:mixed;dominant-baseline:auto;baseline-shift:baseline;text-anchor:start;white-space:normal;shape-padding:0;clip-rule:nonzero;display:inline;overflow:visible;visibility:visible;opacity:1;isolation:auto;mix-blend-mode:normal;color-interpolation:sRGB;color-interpolation-filters:linearRGB;solid-color:#000000;solid-opacity:1;vector-effect:none;fill:#000000;fill-opacity:1;fill-rule:evenodd;stroke:none;stroke-width:6.54449;stroke-linecap:butt;stroke-linejoin:miter;stroke-miterlimit:4;stroke-dasharray:none;stroke-dashoffset:0;stroke-opacity:1;paint-order:stroke markers fill;color-rendering:auto;image-rendering:auto;shape-rendering:auto;text-rendering:auto;enable-background:accumulate"
             d="m 918.4375,565.07227 c -6.67363,0 -12.1543,5.47871 -12.1543,12.15234 0,6.67363 5.48067,12.1543 12.1543,12.1543 6.67363,0 12.15234,-5.48067 12.15234,-12.1543 0,-6.67363 -5.47871,-12.15234 -12.15234,-12.15234 z m 0,6.54296 c 3.13672,0 5.60938,2.47266 5.60938,5.60938 0,3.13672 -2.47266,5.60937 -5.60938,5.60937 -3.13672,0 -5.60938,-2.47265 -5.60938,-5.60937 0,-3.13672 2.47266,-5.60938 5.60938,-5.60938 z"
             id="path34" />
          <path
             style="color:#000000;font-style:normal;font-variant:normal;font-weight:normal;font-stretch:normal;font-size:medium;line-height:normal;font-family:sans-serif;font-variant-ligatures:normal;font-variant-position:normal;font-variant-caps:normal;font-variant-numeric:normal;font-variant-alternates:normal;font-variant-east-asian:normal;font-feature-settings:normal;text-indent:0;text-align:start;text-decoration:none;text-decoration-line:none;text-decoration-style:solid;text-decoration-color:#000000;letter-spacing:normal;word-spacing:normal;text-transform:none;writing-mode:lr-tb;direction:ltr;text-orientation:mixed;dominant-baseline:auto;baseline-shift:baseline;text-anchor:start;white-space:normal;shape-padding:0;clip-rule:nonzero;display:inline;overflow:visible;visibility:visible;opacity:1;isolation:auto;mix-blend-mode:normal;color-interpolation:sRGB;color-interpolation-filters:linearRGB;solid-color:#000000;solid-opacity:1;vector-effect:none;fill:#ffffff;fill-opacity:1;fill-rule:evenodd;stroke:none;stroke-width:6.54449;stroke-linecap:butt;stroke-linejoin:miter;stroke-miterlimit:4;stroke-dasharray:none;stroke-dashoffset:0;stroke-opacity:1;paint-order:stroke markers fill;color-rendering:auto;image-rendering:auto;shape-rendering:auto;text-rendering:auto;enable-background:accumulate"
             d="m 927.3185,577.22522 c 0,4.90518 -3.97643,8.88161 -8.88161,8.88161 -4.90518,0 -8.88161,-3.97643 -8.88161,-8.88161 0,-4.90518 3.97643,-8.88161 8.88161,-8.88161 4.90518,0 8.88161,3.97643 8.88161,8.88161 z"
             id="path35" />
        </g>
        <circle
           style="opacity:1;vector-effect:none;fill:#000000;fill-opacity:1;fill-rule:evenodd;stroke:none;stroke-width:6.54449;stroke-miterlimit:4;stroke-dasharray:none;paint-order:stroke markers fill"
           id="circle35"
           cx="1018.8536"
           cy="743.02454"
           r="3.9881155" />
        <g
           id="g37"
           transform="translate(99.122512,165.32635)">
          <path
             style="color:#000000;font-style:normal;font-variant:normal;font-weight:normal;font-stretch:normal;font-size:medium;line-height:normal;font-family:sans-serif;font-variant-ligatures:normal;font-variant-position:normal;font-variant-caps:normal;font-variant-numeric:normal;font-variant-alternates:normal;font-variant-east-asian:normal;font-feature-settings:normal;text-indent:0;text-align:start;text-decoration:none;text-decoration-line:none;text-decoration-style:solid;text-decoration-color:#000000;letter-spacing:normal;word-spacing:normal;text-transform:none;writing-mode:lr-tb;direction:ltr;text-orientation:mixed;dominant-baseline:auto;baseline-shift:baseline;text-anchor:start;white-space:normal;shape-padding:0;clip-rule:nonzero;display:inline;overflow:visible;visibility:visible;opacity:1;isolation:auto;mix-blend-mode:normal;color-interpolation:sRGB;color-interpolation-filters:linearRGB;solid-color:#000000;solid-opacity:1;vector-effect:none;fill:#000000;fill-opacity:1;fill-rule:evenodd;stroke:none;stroke-width:6.54449;stroke-linecap:butt;stroke-linejoin:miter;stroke-miterlimit:4;stroke-dasharray:none;stroke-dashoffset:0;stroke-opacity:1;paint-order:stroke markers fill;color-rendering:auto;image-rendering:auto;shape-rendering:auto;text-rendering:auto;enable-background:accumulate"
             d="m 937.00781,563.45703 c -8.45733,0 -15.38281,6.92549 -15.38281,15.38281 0,8.45733 6.92548,15.38282 15.38281,15.38282 8.45733,0 15.38282,-6.92549 15.38281,-15.38282 0,-8.45732 -6.92548,-15.38281 -15.38281,-15.38281 z m 0,6.54492 c 4.92043,0 8.83789,3.91747 8.83789,8.83789 0,4.92043 -3.91746,8.83985 -8.83789,8.83985 -4.92042,0 -8.83984,-3.91942 -8.83984,-8.83985 0,-4.92042 3.91942,-8.83789 8.83984,-8.83789 z"
             id="path36" />
          <path
             style="color:#000000;font-style:normal;font-variant:normal;font-weight:normal;font-stretch:normal;font-size:medium;line-height:normal;font-family:sans-serif;font-variant-ligatures:normal;font-variant-position:normal;font-variant-caps:normal;font-variant-numeric:normal;font-variant-alternates:normal;font-variant-east-asian:normal;font-feature-settings:normal;text-indent:0;text-align:start;text-decoration:none;text-decoration-line:none;text-decoration-style:solid;text-decoration-color:#000000;letter-spacing:normal;word-spacing:normal;text-transform:none;writing-mode:lr-tb;direction:ltr;text-orientation:mixed;dominant-baseline:auto;baseline-shift:baseline;text-anchor:start;white-space:normal;shape-padding:0;clip-rule:nonzero;display:inline;overflow:visible;visibility:visible;opacity:1;isolation:auto;mix-blend-mode:normal;color-interpolation:sRGB;color-interpolation-filters:linearRGB;solid-color:#000000;solid-opacity:1;vector-effect:none;fill:#ffffff;fill-opacity:1;fill-rule:evenodd;stroke:none;stroke-width:6.54449;stroke-linecap:butt;stroke-linejoin:miter;stroke-miterlimit:4;stroke-dasharray:none;stroke-dashoffset:0;stroke-opacity:1;paint-order:stroke markers fill;color-rendering:auto;image-rendering:auto;shape-rendering:auto;text-rendering:auto;enable-background:accumulate"
             d="m 949.11885,578.84009 c 0,6.68887 -5.42241,12.11128 -12.11128,12.11128 -6.68888,0 -12.11128,-5.42241 -12.11128,-12.11128 0,-6.68888 5.4224,-12.11128 12.11128,-12.11128 6.68887,0 12.11128,5.4224 12.11128,12.11128 z"
             id="path37" />
        </g>
        <circle
           r="6.2718406"
           cy="744.16638"
           cx="1038.2653"
           id="circle37"
           style="opacity:1;vector-effect:none;fill:#000000;fill-opacity:1;fill-rule:evenodd;stroke:none;stroke-width:6.54449;stroke-miterlimit:4;stroke-dasharray:none;paint-order:stroke markers fill" />
      </g>
      <g
         id="g66"
         transform="translate(-101.96463,166.04529)">
        <g
           transform="translate(244.83922,671.28574)"
           id="g45">
          <path
             inkscape:connector-curvature="0"
             d="m 899.43659,137.88685 c -1.11099,0.5555 -2.27488,0.87292 -3.2007,0.87292 -3.01554,0 -5.29042,-2.30133 -5.29042,-5.34332 0,-3.01554 2.24843,-5.31687 5.23751,-5.31687 1.69294,0 3.57104,0.79356 4.89364,2.03681 l 2.75102,-3.38587 c -1.90455,-1.69293 -4.84074,-2.75102 -7.6182,-2.75102 -5.87237,0 -10.23696,4.02072 -10.23696,9.41695 0,5.39622 4.25878,9.46984 9.91953,9.46984 2.59231,0 5.7401,-1.00517 7.72401,-2.38068 v -7.30078 h -4.17943 z"
             style="font-style:normal;font-variant:normal;font-weight:bold;font-stretch:normal;font-size:40px;line-height:32.195px;font-family:Montserrat;-inkscape-font-specification:'Montserrat Bold';letter-spacing:0px;word-spacing:0px;fill:#000000;fill-opacity:1;stroke:none;stroke-width:0.9375px;stroke-linecap:butt;stroke-linejoin:miter;stroke-opacity:1"
             id="path42" />
          <path
             inkscape:connector-curvature="0"
             d="m 911.63596,124.13176 h -4.84073 v 18.54292 h 4.84073 z"
             style="font-style:normal;font-variant:normal;font-weight:bold;font-stretch:normal;font-size:40px;line-height:32.195px;font-family:Montserrat;-inkscape-font-specification:'Montserrat Bold';letter-spacing:0px;word-spacing:0px;fill:#000000;fill-opacity:1;stroke:none;stroke-width:0.9375px;stroke-linecap:butt;stroke-linejoin:miter;stroke-opacity:1"
             id="path43" />
          <path
             inkscape:connector-curvature="0"
             d="m 935.63752,124.13176 h -5.29042 l -4.92009,10.81891 -4.92009,-10.81891 h -5.29041 v 18.54292 h 4.31169 v -11.74473 l 4.31168,9.89308 h 3.17425 l 4.31169,-9.89308 0.0265,11.74473 h 4.28524 z"
             style="font-style:normal;font-variant:normal;font-weight:bold;font-stretch:normal;font-size:40px;line-height:32.195px;font-family:Montserrat;-inkscape-font-specification:'Montserrat Bold';letter-spacing:0px;word-spacing:0px;fill:#000000;fill-opacity:1;stroke:none;stroke-width:0.9375px;stroke-linecap:butt;stroke-linejoin:miter;stroke-opacity:1"
             id="path44" />
          <path
             inkscape:connector-curvature="0"
             d="m 947.3876,124.13176 h -8.14724 v 18.54292 h 4.84073 v -5.13171 h 3.30651 c 4.73493,0 7.45949,-2.5394 7.45949,-6.90399 0,-4.12653 -2.72456,-6.50722 -7.45949,-6.50722 z m -0.23807,3.86201 c 1.95746,0 3.0949,0.97873 3.0949,2.80392 0,1.8781 -1.13744,2.88328 -3.0949,2.88328 h -3.06844 v -5.6872 z"
             style="font-style:normal;font-variant:normal;font-weight:bold;font-stretch:normal;font-size:40px;line-height:32.195px;font-family:Montserrat;-inkscape-font-specification:'Montserrat Bold';letter-spacing:0px;word-spacing:0px;fill:#000000;fill-opacity:1;stroke:none;stroke-width:0.9375px;stroke-linecap:butt;stroke-linejoin:miter;stroke-opacity:1"
             id="path45" />
        </g>
        <g
           style="fill:none;stroke:#1a1a1a;stroke-width:2.21686;stroke-dasharray:none"
           id="g46"
           transform="matrix(1.1983612,0,0,-1.2391989,1205.5563,722.93628)">
          <path
             sodipodi:nodetypes="ccccccccsc"
             inkscape:connector-curvature="0"
             id="path46"
             d="m -33.952484,-47.169395 c -13.768026,0.208683 -24.444447,7.709617 -29.650229,9.884024 -0.857972,0.581405 2.730477,0.774131 2.429705,1.765939 -0.817393,2.696473 -3.997632,6.622671 -4.021763,10.169086 0.034,3.137385 9.606984,5.870664 8.199497,10.777901 -2.613085,5.0066406 -2.223981,16.6888721 7.055294,23.0186974 3.009189,-10.2756709 7.848023,-19.2637524 16.920757,-19.4999984 14.493233,0.0407 25.0516972,13.1921854 28.0179908,24.197485 C -0.68739211,9.2675857 3.2477083,0.75099665 4.3233035,-5.8069774 7.4136428,-24.648979 -5.5500636,-47.107574 -33.952484,-47.169395 Z"
             style="fill:#b3b3b3;stroke:#1a1a1a;stroke-width:2.98962;stroke-linecap:butt;stroke-linejoin:round;stroke-miterlimit:10;stroke-dasharray:none;stroke-opacity:1" />
        </g>
        <ellipse
           transform="matrix(0.73293555,-0.68029808,0.64725028,0.76227756,0,0)"
           ry="16.761148"
           rx="12.889563"
           cy="1322.7394"
           cx="369.27582"
           id="ellipse46"
           style="opacity:1;fill:#000000;fill-opacity:1;fill-rule:evenodd;stroke:none;stroke-width:0.937958;stroke-linejoin:miter;stroke-miterlimit:4;stroke-dasharray:none;stroke-opacity:1" />
        <path
           sodipodi:nodetypes="cccc"
           inkscape:connector-curvature="0"
           id="path47"
           d="m 1272.3949,637.6588 c 6.2546,-1.47361 14.5442,-4.37335 18.624,-11.32932 1.1798,-2.01154 3.1556,-2.40337 3.4304,-0.13998 0.2541,2.09231 -0.1661,4.69361 -1.6193,7.1497 -1.1855,2.00387 -4.3577,4.22703 -6.613,4.79884 -4.0068,1.01591 -9.6281,1.41438 -13.8058,1.10891 -2.3256,-0.17003 -2.2918,-1.05203 -0.016,-1.58815 z"
           style="fill:#000000;stroke:none;stroke-width:0.9375px;stroke-linecap:butt;stroke-linejoin:miter;stroke-opacity:1"
           inkscape:path-effect="#path-effect52"
           inkscape:original-d="m 1268.2514,638.52465 c 6.9004,-1.31801 20.9313,-4.19716 24.442,-16.07143 2.5246,1.90166 3.0704,9.16424 -2.5637,14.12344 -3.9242,2.74097 -17.322,3.56302 -21.8783,1.94799 z"
           transform="translate(-103.8714,131.66125)" />
        <path
           inkscape:connector-curvature="0"
           id="path48"
           d="m 1214.0959,785.54932 v 0.004 c 10e-5,0 0.01,-0.63799 0.01,0.20875 a 4.0274332,4.0274332 0 0 0 -0.01,-0.21241 z"
           style="color:#000000;display:inline;overflow:visible;visibility:visible;fill:#000000;fill-opacity:1;fill-rule:nonzero;stroke:none;stroke-width:2.53125;marker:none;enable-background:accumulate" />
        <g
           id="g50"
           transform="translate(229.9701,163.52883)">
          <path
             style="color:#000000;font-style:normal;font-variant:normal;font-weight:normal;font-stretch:normal;font-size:medium;line-height:normal;font-family:sans-serif;font-variant-ligatures:normal;font-variant-position:normal;font-variant-caps:normal;font-variant-numeric:normal;font-variant-alternates:normal;font-variant-east-asian:normal;font-feature-settings:normal;text-indent:0;text-align:start;text-decoration:none;text-decoration-line:none;text-decoration-style:solid;text-decoration-color:#000000;letter-spacing:normal;word-spacing:normal;text-transform:none;writing-mode:lr-tb;direction:ltr;text-orientation:mixed;dominant-baseline:auto;baseline-shift:baseline;text-anchor:start;white-space:normal;shape-padding:0;clip-rule:nonzero;display:inline;overflow:visible;visibility:visible;opacity:1;isolation:auto;mix-blend-mode:normal;color-interpolation:sRGB;color-interpolation-filters:linearRGB;solid-color:#000000;solid-opacity:1;vector-effect:none;fill:#000000;fill-opacity:1;fill-rule:evenodd;stroke:none;stroke-width:6.54449;stroke-linecap:butt;stroke-linejoin:miter;stroke-miterlimit:4;stroke-dasharray:none;stroke-dashoffset:0;stroke-opacity:1;paint-order:stroke markers fill;color-rendering:auto;image-rendering:auto;shape-rendering:auto;text-rendering:auto;enable-background:accumulate"
             d="m 918.4375,565.07227 c -6.67363,0 -12.1543,5.47871 -12.1543,12.15234 0,6.67363 5.48067,12.1543 12.1543,12.1543 6.67363,0 12.15234,-5.48067 12.15234,-12.1543 0,-6.67363 -5.47871,-12.15234 -12.15234,-12.15234 z m 0,6.54296 c 3.13672,0 5.60938,2.47266 5.60938,5.60938 0,3.13672 -2.47266,5.60937 -5.60938,5.60937 -3.13672,0 -5.60938,-2.47265 -5.60938,-5.60937 0,-3.13672 2.47266,-5.60938 5.60938,-5.60938 z"
             id="path49" />
          <path
             style="color:#000000;font-style:normal;font-variant:normal;font-weight:normal;font-stretch:normal;font-size:medium;line-height:normal;font-family:sans-serif;font-variant-ligatures:normal;font-variant-position:normal;font-variant-caps:normal;font-variant-numeric:normal;font-variant-alternates:normal;font-variant-east-asian:normal;font-feature-settings:normal;text-indent:0;text-align:start;text-decoration:none;text-decoration-line:none;text-decoration-style:solid;text-decoration-color:#000000;letter-spacing:normal;word-spacing:normal;text-transform:none;writing-mode:lr-tb;direction:ltr;text-orientation:mixed;dominant-baseline:auto;baseline-shift:baseline;text-anchor:start;white-space:normal;shape-padding:0;clip-rule:nonzero;display:inline;overflow:visible;visibility:visible;opacity:1;isolation:auto;mix-blend-mode:normal;color-interpolation:sRGB;color-interpolation-filters:linearRGB;solid-color:#000000;solid-opacity:1;vector-effect:none;fill:#ffffff;fill-opacity:1;fill-rule:evenodd;stroke:none;stroke-width:6.54449;stroke-linecap:butt;stroke-linejoin:miter;stroke-miterlimit:4;stroke-dasharray:none;stroke-dashoffset:0;stroke-opacity:1;paint-order:stroke markers fill;color-rendering:auto;image-rendering:auto;shape-rendering:auto;text-rendering:auto;enable-background:accumulate"
             d="m 927.3185,577.22522 c 0,4.90518 -3.97643,8.88161 -8.88161,8.88161 -4.90518,0 -8.88161,-3.97643 -8.88161,-8.88161 0,-4.90518 3.97643,-8.88161 8.88161,-8.88161 4.90518,0 8.88161,3.97643 8.88161,8.88161 z"
             id="path50" />
        </g>
        <circle
           style="opacity:1;vector-effect:none;fill:#000000;fill-opacity:1;fill-rule:evenodd;stroke:none;stroke-width:6.54449;stroke-miterlimit:4;stroke-dasharray:none;paint-order:stroke markers fill"
           id="circle50"
           cx="1149.7013"
           cy="741.22711"
           r="3.9881155" />
        <g
           id="g52"
           transform="translate(229.9701,163.52883)">
          <path
             style="color:#000000;font-style:normal;font-variant:normal;font-weight:normal;font-stretch:normal;font-size:medium;line-height:normal;font-family:sans-serif;font-variant-ligatures:normal;font-variant-position:normal;font-variant-caps:normal;font-variant-numeric:normal;font-variant-alternates:normal;font-variant-east-asian:normal;font-feature-settings:normal;text-indent:0;text-align:start;text-decoration:none;text-decoration-line:none;text-decoration-style:solid;text-decoration-color:#000000;letter-spacing:normal;word-spacing:normal;text-transform:none;writing-mode:lr-tb;direction:ltr;text-orientation:mixed;dominant-baseline:auto;baseline-shift:baseline;text-anchor:start;white-space:normal;shape-padding:0;clip-rule:nonzero;display:inline;overflow:visible;visibility:visible;opacity:1;isolation:auto;mix-blend-mode:normal;color-interpolation:sRGB;color-interpolation-filters:linearRGB;solid-color:#000000;solid-opacity:1;vector-effect:none;fill:#000000;fill-opacity:1;fill-rule:evenodd;stroke:none;stroke-width:6.54449;stroke-linecap:butt;stroke-linejoin:miter;stroke-miterlimit:4;stroke-dasharray:none;stroke-dashoffset:0;stroke-opacity:1;paint-order:stroke markers fill;color-rendering:auto;image-rendering:auto;shape-rendering:auto;text-rendering:auto;enable-background:accumulate"
             d="m 937.00781,563.45703 c -8.45733,0 -15.38281,6.92549 -15.38281,15.38281 0,8.45733 6.92548,15.38282 15.38281,15.38282 8.45733,0 15.38282,-6.92549 15.38281,-15.38282 0,-8.45732 -6.92548,-15.38281 -15.38281,-15.38281 z m 0,6.54492 c 4.92043,0 8.83789,3.91747 8.83789,8.83789 0,4.92043 -3.91746,8.83985 -8.83789,8.83985 -4.92042,0 -8.83984,-3.91942 -8.83984,-8.83985 0,-4.92042 3.91942,-8.83789 8.83984,-8.83789 z"
             id="path51" />
          <path
             style="color:#000000;font-style:normal;font-variant:normal;font-weight:normal;font-stretch:normal;font-size:medium;line-height:normal;font-family:sans-serif;font-variant-ligatures:normal;font-variant-position:normal;font-variant-caps:normal;font-variant-numeric:normal;font-variant-alternates:normal;font-variant-east-asian:normal;font-feature-settings:normal;text-indent:0;text-align:start;text-decoration:none;text-decoration-line:none;text-decoration-style:solid;text-decoration-color:#000000;letter-spacing:normal;word-spacing:normal;text-transform:none;writing-mode:lr-tb;direction:ltr;text-orientation:mixed;dominant-baseline:auto;baseline-shift:baseline;text-anchor:start;white-space:normal;shape-padding:0;clip-rule:nonzero;display:inline;overflow:visible;visibility:visible;opacity:1;isolation:auto;mix-blend-mode:normal;color-interpolation:sRGB;color-interpolation-filters:linearRGB;solid-color:#000000;solid-opacity:1;vector-effect:none;fill:#ffffff;fill-opacity:1;fill-rule:evenodd;stroke:none;stroke-width:6.54449;stroke-linecap:butt;stroke-linejoin:miter;stroke-miterlimit:4;stroke-dasharray:none;stroke-dashoffset:0;stroke-opacity:1;paint-order:stroke markers fill;color-rendering:auto;image-rendering:auto;shape-rendering:auto;text-rendering:auto;enable-background:accumulate"
             d="m 949.11885,578.84009 c 0,6.68887 -5.42241,12.11128 -12.11128,12.11128 -6.68888,0 -12.11128,-5.42241 -12.11128,-12.11128 0,-6.68888 5.4224,-12.11128 12.11128,-12.11128 6.68887,0 12.11128,5.4224 12.11128,12.11128 z"
             id="path52" />
        </g>
        <circle
           r="6.2718406"
           cy="742.36896"
           cx="1169.1129"
           id="circle52"
           style="opacity:1;vector-effect:none;fill:#000000;fill-opacity:1;fill-rule:evenodd;stroke:none;stroke-width:6.54449;stroke-miterlimit:4;stroke-dasharray:none;paint-order:stroke markers fill" />
      </g>
      <g
         id="g64"
         transform="translate(17.505901,17.805409)">
        <g
           style="fill:#999999;stroke:none;stroke-width:0.983384"
           id="g17"
           transform="matrix(1.25,0,0,-1.2925975,944.6365,717.03101)">
          <path
             sodipodi:nodetypes="cccccccccc"
             inkscape:connector-curvature="0"
             id="path17"
             d="m -29.154476,-53.505432 c -13.768026,0.208683 -24.444447,7.709617 -29.650229,9.884024 -0.857972,0.581405 2.730477,0.774131 2.429705,1.765939 -0.817393,2.696473 -3.997632,6.622671 -4.021763,10.169086 0.034,3.137385 9.606984,5.870664 8.199497,10.777901 -2.613085,5.006641 -2.223981,16.6888725 7.055294,23.0186978 3.009189,-10.2756709 7.848023,-19.2637528 16.920757,-19.4999988 15.21119,0.57963 24.9442129,17.79283125 28.01799098,24.1974853 C 16.150326,-7.8865989 5.898522,-39.943992 -6.8905799,-48.032087 -12.664658,-50.205576 -23.197538,-53.403215 -29.154476,-53.505432 Z"
             style="fill:#000000;stroke:none;stroke-width:5.90031;stroke-linecap:butt;stroke-linejoin:miter;stroke-miterlimit:10;stroke-dasharray:none;stroke-opacity:1" />
        </g>
        <g
           transform="translate(-14.008375,672.76853)"
           id="g21">
          <path
             inkscape:connector-curvature="0"
             d="m 899.43659,137.88685 c -1.11099,0.5555 -2.27488,0.87292 -3.2007,0.87292 -3.01554,0 -5.29042,-2.30133 -5.29042,-5.34332 0,-3.01554 2.24843,-5.31687 5.23751,-5.31687 1.69294,0 3.57104,0.79356 4.89364,2.03681 l 2.75102,-3.38587 c -1.90455,-1.69293 -4.84074,-2.75102 -7.6182,-2.75102 -5.87237,0 -10.23696,4.02072 -10.23696,9.41695 0,5.39622 4.25878,9.46984 9.91953,9.46984 2.59231,0 5.7401,-1.00517 7.72401,-2.38068 v -7.30078 h -4.17943 z"
             style="font-style:normal;font-variant:normal;font-weight:bold;font-stretch:normal;font-size:40px;line-height:32.195px;font-family:Montserrat;-inkscape-font-specification:'Montserrat Bold';letter-spacing:0px;word-spacing:0px;fill:#000000;fill-opacity:1;stroke:none;stroke-width:0.9375px;stroke-linecap:butt;stroke-linejoin:miter;stroke-opacity:1"
             id="path18" />
          <path
             inkscape:connector-curvature="0"
             d="m 911.63596,124.13176 h -4.84073 v 18.54292 h 4.84073 z"
             style="font-style:normal;font-variant:normal;font-weight:bold;font-stretch:normal;font-size:40px;line-height:32.195px;font-family:Montserrat;-inkscape-font-specification:'Montserrat Bold';letter-spacing:0px;word-spacing:0px;fill:#000000;fill-opacity:1;stroke:none;stroke-width:0.9375px;stroke-linecap:butt;stroke-linejoin:miter;stroke-opacity:1"
             id="path19" />
          <path
             inkscape:connector-curvature="0"
             d="m 935.63752,124.13176 h -5.29042 l -4.92009,10.81891 -4.92009,-10.81891 h -5.29041 v 18.54292 h 4.31169 v -11.74473 l 4.31168,9.89308 h 3.17425 l 4.31169,-9.89308 0.0265,11.74473 h 4.28524 z"
             style="font-style:normal;font-variant:normal;font-weight:bold;font-stretch:normal;font-size:40px;line-height:32.195px;font-family:Montserrat;-inkscape-font-specification:'Montserrat Bold';letter-spacing:0px;word-spacing:0px;fill:#000000;fill-opacity:1;stroke:none;stroke-width:0.9375px;stroke-linecap:butt;stroke-linejoin:miter;stroke-opacity:1"
             id="path20" />
          <path
             inkscape:connector-curvature="0"
             d="m 947.3876,124.13176 h -8.14724 v 18.54292 h 4.84073 v -5.13171 h 3.30651 c 4.73493,0 7.45949,-2.5394 7.45949,-6.90399 0,-4.12653 -2.72456,-6.50722 -7.45949,-6.50722 z m -0.23807,3.86201 c 1.95746,0 3.0949,0.97873 3.0949,2.80392 0,1.8781 -1.13744,2.88328 -3.0949,2.88328 h -3.06844 v -5.6872 z"
             style="font-style:normal;font-variant:normal;font-weight:bold;font-stretch:normal;font-size:40px;line-height:32.195px;font-family:Montserrat;-inkscape-font-specification:'Montserrat Bold';letter-spacing:0px;word-spacing:0px;fill:#000000;fill-opacity:1;stroke:none;stroke-width:0.9375px;stroke-linecap:butt;stroke-linejoin:miter;stroke-opacity:1"
             id="path21" />
        </g>
        <g
           transform="matrix(1.25,0,0,-1.25,944.6365,717.88288)"
           id="g22"
           style="fill:#999999;stroke:none">
          <path
             inkscape:connector-curvature="0"
             id="path22"
             style="fill:#999999;stroke:none;stroke-width:6;stroke-linecap:butt;stroke-linejoin:miter;stroke-miterlimit:10;stroke-dasharray:none;stroke-opacity:1"
             d="M -0.919,-1.1112753 C -12.626967,-15.877202 -19.607056,-21.718155 -30.892653,-19.631702 c -6.707709,1.595669 -9.848756,3.909163 -14.774329,13.2229128 -2.305472,5.6122625 -8.244016,-7.0152438 -3.579732,-14.6086398 0.321193,-9.43979 -18.415657,-10.611839 -16.728862,-16.176357 20.057521,-10.074107 33.42625,-20.6298 55.592226,-8.589425 7.3589315,3.867313 5.7695571,9.754397 9.1906087,13.423968 8.6993416,6.396378 6.9242101,35.3639549 0.2737413,31.2479677 z"
             sodipodi:nodetypes="cccccccc" />
        </g>
        <ellipse
           transform="matrix(0.73293555,-0.68029808,0.64725028,0.76227756,0,0)"
           ry="16.761148"
           rx="12.889563"
           cy="1149.8372"
           cx="170.71613"
           id="ellipse22"
           style="opacity:1;fill:#000000;fill-opacity:1;fill-rule:evenodd;stroke:none;stroke-width:0.937958;stroke-linejoin:miter;stroke-miterlimit:4;stroke-dasharray:none;stroke-opacity:1" />
        <path
           inkscape:connector-curvature="0"
           id="path24"
           d="m 956.6532,788.82963 v 0.004 c 10e-5,0 0.01,-0.63799 0.01,0.20875 a 4.0274332,4.0274332 0 0 0 -0.01,-0.21241 z"
           style="color:#000000;display:inline;overflow:visible;visibility:visible;fill:#000000;fill-opacity:1;fill-rule:nonzero;stroke:none;stroke-width:2.53125;marker:none;enable-background:accumulate" />
        <g
           id="g26"
           transform="translate(-27.472527,166.80914)">
          <path
             style="color:#000000;font-style:normal;font-variant:normal;font-weight:normal;font-stretch:normal;font-size:medium;line-height:normal;font-family:sans-serif;font-variant-ligatures:normal;font-variant-position:normal;font-variant-caps:normal;font-variant-numeric:normal;font-variant-alternates:normal;font-variant-east-asian:normal;font-feature-settings:normal;text-indent:0;text-align:start;text-decoration:none;text-decoration-line:none;text-decoration-style:solid;text-decoration-color:#000000;letter-spacing:normal;word-spacing:normal;text-transform:none;writing-mode:lr-tb;direction:ltr;text-orientation:mixed;dominant-baseline:auto;baseline-shift:baseline;text-anchor:start;white-space:normal;shape-padding:0;clip-rule:nonzero;display:inline;overflow:visible;visibility:visible;opacity:1;isolation:auto;mix-blend-mode:normal;color-interpolation:sRGB;color-interpolation-filters:linearRGB;solid-color:#000000;solid-opacity:1;vector-effect:none;fill:#000000;fill-opacity:1;fill-rule:evenodd;stroke:none;stroke-width:6.54449;stroke-linecap:butt;stroke-linejoin:miter;stroke-miterlimit:4;stroke-dasharray:none;stroke-dashoffset:0;stroke-opacity:1;paint-order:stroke markers fill;color-rendering:auto;image-rendering:auto;shape-rendering:auto;text-rendering:auto;enable-background:accumulate"
             d="m 918.4375,565.07227 c -6.67363,0 -12.1543,5.47871 -12.1543,12.15234 0,6.67363 5.48067,12.1543 12.1543,12.1543 6.67363,0 12.15234,-5.48067 12.15234,-12.1543 0,-6.67363 -5.47871,-12.15234 -12.15234,-12.15234 z m 0,6.54296 c 3.13672,0 5.60938,2.47266 5.60938,5.60938 0,3.13672 -2.47266,5.60937 -5.60938,5.60937 -3.13672,0 -5.60938,-2.47265 -5.60938,-5.60937 0,-3.13672 2.47266,-5.60938 5.60938,-5.60938 z"
             id="path25" />
          <path
             style="color:#000000;font-style:normal;font-variant:normal;font-weight:normal;font-stretch:normal;font-size:medium;line-height:normal;font-family:sans-serif;font-variant-ligatures:normal;font-variant-position:normal;font-variant-caps:normal;font-variant-numeric:normal;font-variant-alternates:normal;font-variant-east-asian:normal;font-feature-settings:normal;text-indent:0;text-align:start;text-decoration:none;text-decoration-line:none;text-decoration-style:solid;text-decoration-color:#000000;letter-spacing:normal;word-spacing:normal;text-transform:none;writing-mode:lr-tb;direction:ltr;text-orientation:mixed;dominant-baseline:auto;baseline-shift:baseline;text-anchor:start;white-space:normal;shape-padding:0;clip-rule:nonzero;display:inline;overflow:visible;visibility:visible;opacity:1;isolation:auto;mix-blend-mode:normal;color-interpolation:sRGB;color-interpolation-filters:linearRGB;solid-color:#000000;solid-opacity:1;vector-effect:none;fill:#ffffff;fill-opacity:1;fill-rule:evenodd;stroke:none;stroke-width:6.54449;stroke-linecap:butt;stroke-linejoin:miter;stroke-miterlimit:4;stroke-dasharray:none;stroke-dashoffset:0;stroke-opacity:1;paint-order:stroke markers fill;color-rendering:auto;image-rendering:auto;shape-rendering:auto;text-rendering:auto;enable-background:accumulate"
             d="m 927.3185,577.22522 c 0,4.90518 -3.97643,8.88161 -8.88161,8.88161 -4.90518,0 -8.88161,-3.97643 -8.88161,-8.88161 0,-4.90518 3.97643,-8.88161 8.88161,-8.88161 4.90518,0 8.88161,3.97643 8.88161,8.88161 z"
             id="path26" />
        </g>
        <circle
           style="opacity:1;vector-effect:none;fill:#000000;fill-opacity:1;fill-rule:evenodd;stroke:none;stroke-width:6.54449;stroke-miterlimit:4;stroke-dasharray:none;paint-order:stroke markers fill"
           id="circle26"
           cx="892.25854"
           cy="744.50732"
           r="3.9881155" />
        <g
           id="g28"
           transform="translate(-27.472527,166.80914)">
          <path
             style="color:#000000;font-style:normal;font-variant:normal;font-weight:normal;font-stretch:normal;font-size:medium;line-height:normal;font-family:sans-serif;font-variant-ligatures:normal;font-variant-position:normal;font-variant-caps:normal;font-variant-numeric:normal;font-variant-alternates:normal;font-variant-east-asian:normal;font-feature-settings:normal;text-indent:0;text-align:start;text-decoration:none;text-decoration-line:none;text-decoration-style:solid;text-decoration-color:#000000;letter-spacing:normal;word-spacing:normal;text-transform:none;writing-mode:lr-tb;direction:ltr;text-orientation:mixed;dominant-baseline:auto;baseline-shift:baseline;text-anchor:start;white-space:normal;shape-padding:0;clip-rule:nonzero;display:inline;overflow:visible;visibility:visible;opacity:1;isolation:auto;mix-blend-mode:normal;color-interpolation:sRGB;color-interpolation-filters:linearRGB;solid-color:#000000;solid-opacity:1;vector-effect:none;fill:#000000;fill-opacity:1;fill-rule:evenodd;stroke:none;stroke-width:6.54449;stroke-linecap:butt;stroke-linejoin:miter;stroke-miterlimit:4;stroke-dasharray:none;stroke-dashoffset:0;stroke-opacity:1;paint-order:stroke markers fill;color-rendering:auto;image-rendering:auto;shape-rendering:auto;text-rendering:auto;enable-background:accumulate"
             d="m 937.00781,563.45703 c -8.45733,0 -15.38281,6.92549 -15.38281,15.38281 0,8.45733 6.92548,15.38282 15.38281,15.38282 8.45733,0 15.38282,-6.92549 15.38281,-15.38282 0,-8.45732 -6.92548,-15.38281 -15.38281,-15.38281 z m 0,6.54492 c 4.92043,0 8.83789,3.91747 8.83789,8.83789 0,4.92043 -3.91746,8.83985 -8.83789,8.83985 -4.92042,0 -8.83984,-3.91942 -8.83984,-8.83985 0,-4.92042 3.91942,-8.83789 8.83984,-8.83789 z"
             id="path27" />
          <path
             style="color:#000000;font-style:normal;font-variant:normal;font-weight:normal;font-stretch:normal;font-size:medium;line-height:normal;font-family:sans-serif;font-variant-ligatures:normal;font-variant-position:normal;font-variant-caps:normal;font-variant-numeric:normal;font-variant-alternates:normal;font-variant-east-asian:normal;font-feature-settings:normal;text-indent:0;text-align:start;text-decoration:none;text-decoration-line:none;text-decoration-style:solid;text-decoration-color:#000000;letter-spacing:normal;word-spacing:normal;text-transform:none;writing-mode:lr-tb;direction:ltr;text-orientation:mixed;dominant-baseline:auto;baseline-shift:baseline;text-anchor:start;white-space:normal;shape-padding:0;clip-rule:nonzero;display:inline;overflow:visible;visibility:visible;opacity:1;isolation:auto;mix-blend-mode:normal;color-interpolation:sRGB;color-interpolation-filters:linearRGB;solid-color:#000000;solid-opacity:1;vector-effect:none;fill:#ffffff;fill-opacity:1;fill-rule:evenodd;stroke:none;stroke-width:6.54449;stroke-linecap:butt;stroke-linejoin:miter;stroke-miterlimit:4;stroke-dasharray:none;stroke-dashoffset:0;stroke-opacity:1;paint-order:stroke markers fill;color-rendering:auto;image-rendering:auto;shape-rendering:auto;text-rendering:auto;enable-background:accumulate"
             d="m 949.11885,578.84009 c 0,6.68887 -5.42241,12.11128 -12.11128,12.11128 -6.68888,0 -12.11128,-5.42241 -12.11128,-12.11128 0,-6.68888 5.4224,-12.11128 12.11128,-12.11128 6.68887,0 12.11128,5.4224 12.11128,12.11128 z"
             id="path28" />
        </g>
        <circle
           r="6.2718406"
           cy="745.64917"
           cx="911.67023"
           id="circle28"
           style="opacity:1;vector-effect:none;fill:#000000;fill-opacity:1;fill-rule:evenodd;stroke:none;stroke-width:6.54449;stroke-miterlimit:4;stroke-dasharray:none;paint-order:stroke markers fill" />
        <path
           sodipodi:nodetypes="cccc"
           inkscape:connector-curvature="0"
           id="path11648-1-5"
           d="m 903.2105,774.24965 c 6.9004,-1.31801 20.9313,-4.19716 24.442,-16.07143 2.5246,1.90166 3.0705,9.16424 -2.5636,14.12344 -3.9242,2.74097 -17.322,3.56302 -21.8784,1.94799 z"
           style="fill:#000000;stroke:none;stroke-width:0.9375px;stroke-linecap:butt;stroke-linejoin:miter;stroke-opacity:1" />
      </g>
      <g
         id="g3"
         transform="translate(-189.07565)">
        <g
           transform="matrix(1.0603995,0,0,1.0603995,-6.0741024,831.71193)"
           id="g93">
          <path
             inkscape:connector-curvature="0"
             d="m 899.43659,137.88685 c -1.11099,0.5555 -2.27488,0.87292 -3.2007,0.87292 -3.01554,0 -5.29042,-2.30133 -5.29042,-5.34332 0,-3.01554 2.24843,-5.31687 5.23751,-5.31687 1.69294,0 3.57104,0.79356 4.89364,2.03681 l 2.75102,-3.38587 c -1.90455,-1.69293 -4.84074,-2.75102 -7.6182,-2.75102 -5.87237,0 -10.23696,4.02072 -10.23696,9.41695 0,5.39622 4.25878,9.46984 9.91953,9.46984 2.59231,0 5.7401,-1.00517 7.72401,-2.38068 v -7.30078 h -4.17943 z"
             style="font-style:normal;font-variant:normal;font-weight:bold;font-stretch:normal;font-size:40px;line-height:32.195px;font-family:Montserrat;-inkscape-font-specification:'Montserrat Bold';letter-spacing:0px;word-spacing:0px;fill:#000000;fill-opacity:1;stroke:none;stroke-width:0.9375px;stroke-linecap:butt;stroke-linejoin:miter;stroke-opacity:1"
             id="path90" />
          <path
             inkscape:connector-curvature="0"
             d="m 911.63596,124.13176 h -4.84073 v 18.54292 h 4.84073 z"
             style="font-style:normal;font-variant:normal;font-weight:bold;font-stretch:normal;font-size:40px;line-height:32.195px;font-family:Montserrat;-inkscape-font-specification:'Montserrat Bold';letter-spacing:0px;word-spacing:0px;fill:#000000;fill-opacity:1;stroke:none;stroke-width:0.9375px;stroke-linecap:butt;stroke-linejoin:miter;stroke-opacity:1"
             id="path91" />
          <path
             inkscape:connector-curvature="0"
             d="m 935.63752,124.13176 h -5.29042 l -4.92009,10.81891 -4.92009,-10.81891 h -5.29041 v 18.54292 h 4.31169 v -11.74473 l 4.31168,9.89308 h 3.17425 l 4.31169,-9.89308 0.0265,11.74473 h 4.28524 z"
             style="font-style:normal;font-variant:normal;font-weight:bold;font-stretch:normal;font-size:40px;line-height:32.195px;font-family:Montserrat;-inkscape-font-specification:'Montserrat Bold';letter-spacing:0px;word-spacing:0px;fill:#000000;fill-opacity:1;stroke:none;stroke-width:0.9375px;stroke-linecap:butt;stroke-linejoin:miter;stroke-opacity:1"
             id="path92" />
          <path
             inkscape:connector-curvature="0"
             d="m 947.3876,124.13176 h -8.14724 v 18.54292 h 4.84073 v -5.13171 h 3.30651 c 4.73493,0 7.45949,-2.5394 7.45949,-6.90399 0,-4.12653 -2.72456,-6.50722 -7.45949,-6.50722 z m -0.23807,3.86201 c 1.95746,0 3.0949,0.97873 3.0949,2.80392 0,1.8781 -1.13744,2.88328 -3.0949,2.88328 h -3.06844 v -5.6872 z"
             style="font-style:normal;font-variant:normal;font-weight:bold;font-stretch:normal;font-size:40px;line-height:32.195px;font-family:Montserrat;-inkscape-font-specification:'Montserrat Bold';letter-spacing:0px;word-spacing:0px;fill:#000000;fill-opacity:1;stroke:none;stroke-width:0.9375px;stroke-linecap:butt;stroke-linejoin:miter;stroke-opacity:1"
             id="path93" />
        </g>
        <g
           id="g103"
           transform="translate(-498.1213,170.50467)">
          <path
             id="path98"
             style="font-variation-settings:normal;vector-effect:none;fill:#b3b3b3;fill-opacity:1;stroke:#1a1a1a;stroke-width:6.27593;stroke-linecap:square;stroke-linejoin:miter;stroke-miterlimit:4;stroke-dasharray:none;stroke-dashoffset:0;stroke-opacity:0.998727;-inkscape-stroke:none;paint-order:markers stroke fill;stop-color:#000000"
             d="m 1419.427,735.99097 a 46.646255,46.646255 0 0 0 46.4699,43.94339 46.646255,46.646255 0 0 0 46.6465,-46.64657 46.646255,46.646255 0 0 0 -15.864,-35.04412 40.091698,40.091698 0 0 1 -25.2027,32.55174 46.646255,46.646255 0 0 1 -1.5194,1.21781 46.646255,46.646255 0 0 1 -1.641,1.20322 46.646255,46.646255 0 0 1 -1.693,1.13187 46.646255,46.646255 0 0 1 -1.7383,1.05565 46.646255,46.646255 0 0 1 -1.7854,0.97782 46.646255,46.646255 0 0 1 -1.8243,0.89998 46.646255,46.646255 0 0 1 -1.8632,0.82052 46.646255,46.646255 0 0 1 -1.8972,0.73782 46.646255,46.646255 0 0 1 -1.9265,0.6535 46.646255,46.646255 0 0 1 -1.954,0.56918 46.646255,46.646255 0 0 1 -1.9767,0.48485 46.646255,46.646255 0 0 1 -1.9962,0.39567 46.646255,46.646255 0 0 1 -2.0124,0.30972 46.646255,46.646255 0 0 1 -2.0221,0.22216 46.646255,46.646255 0 0 1 -2.0318,0.13297 46.646255,46.646255 0 0 1 -2.0335,0.0438 46.646255,46.646255 0 0 1 -6.0891,-0.39891 46.646255,46.646255 0 0 1 -5.9852,-1.19024 46.646255,46.646255 0 0 1 -5.7778,-1.9605 46.646255,46.646255 0 0 1 -4.2826,-2.11131 z" />
          <path
             sodipodi:nodetypes="ccc"
             inkscape:connector-curvature="0"
             id="path99"
             d="m 1467.4418,767.48513 c 8.0138,-0.55779 21.1893,-4.85189 24.442,-16.07143 3.5373,12.97485 -9.8769,22.51707 -24.442,16.07143 z"
             style="fill:#000000;stroke:none;stroke-width:0.9375px;stroke-linecap:butt;stroke-linejoin:miter;stroke-opacity:1" />
          <path
             id="path100"
             style="font-variation-settings:normal;vector-effect:none;fill:#b3b3b3;fill-opacity:1;stroke:#1a1a1a;stroke-width:6.27593;stroke-linecap:square;stroke-linejoin:miter;stroke-miterlimit:4;stroke-dasharray:none;stroke-dashoffset:0;stroke-opacity:0.998727;-inkscape-stroke:none;paint-order:markers stroke fill;stop-color:#000000"
             d="m 1440.1387,735.26693 c 1.3906,0.77642 2.82,1.48111 4.2826,2.11131 1.8811,0.77889 3.8111,1.43379 5.7778,1.9605 1.9669,0.52696 3.9663,0.92456 5.9852,1.19024 2.0188,0.26573 4.0529,0.39899 6.0891,0.39891 0.6781,1.8e-4 1.3561,-0.0144 2.0335,-0.0438 0.6782,-0.0295 1.3556,-0.0739 2.0318,-0.13297 0.6756,-0.0593 1.3498,-0.13342 2.0221,-0.22216 0.673,-0.0886 1.3439,-0.19185 2.0124,-0.30972 0.6682,-0.11736 1.3338,-0.24928 1.9962,-0.39567 0.6623,-0.14722 1.3214,-0.30888 1.9767,-0.48485 0.6554,-0.17549 1.3069,-0.36527 1.954,-0.56918 0.6468,-0.2038 1.384,-0.24646 1.9265,-0.6535 5.0329,-3.77659 1.8191,-5.47526 -0.6162,-5.23448 -13.7373,-0.029 -26.5032,-7.08932 -33.8296,-18.70987 -2.5069,5.8083 -3.8062,12.06583 -3.8188,18.39204 0.033,0.90258 0.092,1.80402 0.1767,2.70318 z"
             sodipodi:nodetypes="scsssscccccsscccss" />
          <ellipse
             style="fill:#000000;stroke:#1a1a1a;stroke-width:0.363064;stroke-linecap:square;stroke-linejoin:miter;stroke-dasharray:none;stroke-opacity:0.998727;paint-order:markers stroke fill"
             id="ellipse100"
             cx="827.75909"
             cy="1372.3481"
             rx="12.678953"
             ry="16.075314"
             transform="rotate(-31.296039)" />
          <circle
             style="fill:#f9f9f9;stroke:#1a1a1a;stroke-width:5.55137;stroke-linecap:square;stroke-linejoin:miter;stroke-dasharray:none;stroke-opacity:0.998727;paint-order:markers stroke fill"
             id="circle100"
             cx="1450.0858"
             cy="737.62781"
             r="10.381622" />
          <circle
             style="fill:#000000;stroke:#1a1a1a;stroke-width:0.132752;stroke-linecap:square;stroke-linejoin:miter;stroke-dasharray:none;stroke-opacity:0.998727;paint-order:markers stroke fill"
             id="circle101"
             cx="1452.3722"
             cy="737.62421"
             r="5.2201438" />
          <circle
             style="fill:#f9f9f9;stroke:#1a1a1a;stroke-width:6.27593;stroke-linecap:square;stroke-linejoin:miter;stroke-dasharray:none;stroke-opacity:0.998727;paint-order:markers stroke fill"
             id="circle102"
             cx="1472.2695"
             cy="738.638"
             r="14.211628" />
          <circle
             style="fill:#000000;stroke:#1a1a1a;stroke-width:0.189936;stroke-linecap:square;stroke-linejoin:miter;stroke-dasharray:none;stroke-opacity:0.998727;paint-order:markers stroke fill"
             id="circle103"
             cx="1475.2107"
             cy="738.49341"
             r="7.4687562" />
        </g>
      </g>
      <g
         id="g147"
         transform="translate(-394.93066,31.616578)">
        <g
           transform="translate(391.64365,807.44716)"
           id="g138">
          <path
             inkscape:connector-curvature="0"
             d="m 899.43659,137.88685 c -1.11099,0.5555 -2.27488,0.87292 -3.2007,0.87292 -3.01554,0 -5.29042,-2.30133 -5.29042,-5.34332 0,-3.01554 2.24843,-5.31687 5.23751,-5.31687 1.69294,0 3.57104,0.79356 4.89364,2.03681 l 2.75102,-3.38587 c -1.90455,-1.69293 -4.84074,-2.75102 -7.6182,-2.75102 -5.87237,0 -10.23696,4.02072 -10.23696,9.41695 0,5.39622 4.25878,9.46984 9.91953,9.46984 2.59231,0 5.7401,-1.00517 7.72401,-2.38068 v -7.30078 h -4.17943 z"
             style="font-style:normal;font-variant:normal;font-weight:bold;font-stretch:normal;font-size:40px;line-height:32.195px;font-family:Montserrat;-inkscape-font-specification:'Montserrat Bold';letter-spacing:0px;word-spacing:0px;fill:#000000;fill-opacity:1;stroke:none;stroke-width:0.9375px;stroke-linecap:butt;stroke-linejoin:miter;stroke-opacity:1"
             id="path135" />
          <path
             inkscape:connector-curvature="0"
             d="m 911.63596,124.13176 h -4.84073 v 18.54292 h 4.84073 z"
             style="font-style:normal;font-variant:normal;font-weight:bold;font-stretch:normal;font-size:40px;line-height:32.195px;font-family:Montserrat;-inkscape-font-specification:'Montserrat Bold';letter-spacing:0px;word-spacing:0px;fill:#000000;fill-opacity:1;stroke:none;stroke-width:0.9375px;stroke-linecap:butt;stroke-linejoin:miter;stroke-opacity:1"
             id="path136" />
          <path
             inkscape:connector-curvature="0"
             d="m 935.63752,124.13176 h -5.29042 l -4.92009,10.81891 -4.92009,-10.81891 h -5.29041 v 18.54292 h 4.31169 v -11.74473 l 4.31168,9.89308 h 3.17425 l 4.31169,-9.89308 0.0265,11.74473 h 4.28524 z"
             style="font-style:normal;font-variant:normal;font-weight:bold;font-stretch:normal;font-size:40px;line-height:32.195px;font-family:Montserrat;-inkscape-font-specification:'Montserrat Bold';letter-spacing:0px;word-spacing:0px;fill:#000000;fill-opacity:1;stroke:none;stroke-width:0.9375px;stroke-linecap:butt;stroke-linejoin:miter;stroke-opacity:1"
             id="path137" />
          <path
             inkscape:connector-curvature="0"
             d="m 947.3876,124.13176 h -8.14724 v 18.54292 h 4.84073 v -5.13171 h 3.30651 c 4.73493,0 7.45949,-2.5394 7.45949,-6.90399 0,-4.12653 -2.72456,-6.50722 -7.45949,-6.50722 z m -0.23807,3.86201 c 1.95746,0 3.0949,0.97873 3.0949,2.80392 0,1.8781 -1.13744,2.88328 -3.0949,2.88328 h -3.06844 v -5.6872 z"
             style="font-style:normal;font-variant:normal;font-weight:bold;font-stretch:normal;font-size:40px;line-height:32.195px;font-family:Montserrat;-inkscape-font-specification:'Montserrat Bold';letter-spacing:0px;word-spacing:0px;fill:#000000;fill-opacity:1;stroke:none;stroke-width:0.9375px;stroke-linecap:butt;stroke-linejoin:miter;stroke-opacity:1"
             id="path138" />
        </g>
        <g
           style="fill:none;stroke:#1a1a1a;stroke-width:2.21686;stroke-linecap:square;stroke-dasharray:none"
           id="g140"
           transform="matrix(1.1983612,0,0,-1.2391989,1352.3604,859.0977)">
          <path
             id="path139"
             style="fill:#b3b3b3;stroke:#1a1a1a;stroke-width:2.98962;stroke-linecap:square;stroke-linejoin:miter;stroke-miterlimit:10;stroke-dasharray:none;stroke-opacity:1"
             d="m -41.671594,-8.0188775 c -5.421669,2.2646969 -8.52755,8.52304483 -10.263027,16.0204672 -8.001568,-8.28583212 -7.75051,-21.0458257 -5.021559,-25.2707637 0.152387,-0.276766 0.260384,-0.554287 0.332608,-0.832014 z"
             sodipodi:nodetypes="ccccc" />
          <path
             id="path140"
             style="fill:#b3b3b3;stroke:#1a1a1a;stroke-width:2.98962;stroke-linecap:square;stroke-linejoin:miter;stroke-miterlimit:10;stroke-dasharray:none;stroke-opacity:1"
             d="m -39.999199,-8.7491016 -16.8578,-6.7051484 c 0.124912,-4.363033 -8.306331,-6.951251 -8.338237,-9.895459 0.02413,-3.546412 3.204231,-7.473791 4.021623,-10.170261 0.300772,-0.991807 -3.286913,-1.183866 -2.428941,-1.76527 5.205776,-2.174405 15.882662,-9.675 29.650675,-9.883682 28.4023915,0.06182 41.3661207,22.519519 38.2757841,41.3615015 C 3.7082736,-2.0538752 2.1558106,2.3413507 0.13174106,6.1408481 -1.3805214,8.9796028 -3.1560428,11.485811 -5.0007938,13.143392 -7.9670844,2.1381031 -18.526326,-11.012806 -33.019545,-11.053506 c -2.675096,0.06966 -4.979091,0.90437 -6.979654,2.3044044 z"
             sodipodi:nodetypes="ccccccssccc" />
        </g>
        <ellipse
           transform="matrix(0.73293555,-0.68029808,0.64725028,0.76227756,0,0)"
           ry="16.761148"
           rx="12.889563"
           cy="1522.6038"
           cx="393.07428"
           id="ellipse140"
           style="opacity:1;fill:#000000;fill-opacity:1;fill-rule:evenodd;stroke:none;stroke-width:0.937958;stroke-linejoin:miter;stroke-miterlimit:4;stroke-dasharray:none;stroke-opacity:1" />
        <path
           sodipodi:nodetypes="cccc"
           inkscape:connector-curvature="0"
           id="path141"
           d="m 1311.1841,906.34732 c 6.9004,-1.31801 20.9313,-4.19716 24.442,-16.07143 2.5246,1.90166 3.0704,9.16424 -2.5637,14.12344 -3.9242,2.74097 -17.322,3.56302 -21.8783,1.94799 z"
           style="fill:#000000;stroke:none;stroke-width:0.9375px;stroke-linecap:butt;stroke-linejoin:miter;stroke-opacity:1" />
        <path
           inkscape:connector-curvature="0"
           id="path142"
           d="m 1360.9,921.71074 v 0.004 c 10e-5,0 0.01,-0.63799 0.01,0.20875 a 4.0274332,4.0274332 0 0 0 -0.01,-0.21241 z"
           style="color:#000000;display:inline;overflow:visible;visibility:visible;fill:#000000;fill-opacity:1;fill-rule:nonzero;stroke:none;stroke-width:2.53125;marker:none;enable-background:accumulate" />
        <g
           id="g144"
           transform="translate(378.43501,299.69025)">
          <path
             style="color:#000000;font-style:normal;font-variant:normal;font-weight:normal;font-stretch:normal;font-size:medium;line-height:normal;font-family:sans-serif;font-variant-ligatures:normal;font-variant-position:normal;font-variant-caps:normal;font-variant-numeric:normal;font-variant-alternates:normal;font-variant-east-asian:normal;font-feature-settings:normal;text-indent:0;text-align:start;text-decoration:none;text-decoration-line:none;text-decoration-style:solid;text-decoration-color:#000000;letter-spacing:normal;word-spacing:normal;text-transform:none;writing-mode:lr-tb;direction:ltr;text-orientation:mixed;dominant-baseline:auto;baseline-shift:baseline;text-anchor:start;white-space:normal;shape-padding:0;clip-rule:nonzero;display:inline;overflow:visible;visibility:visible;opacity:1;isolation:auto;mix-blend-mode:normal;color-interpolation:sRGB;color-interpolation-filters:linearRGB;solid-color:#000000;solid-opacity:1;vector-effect:none;fill:#000000;fill-opacity:1;fill-rule:evenodd;stroke:none;stroke-width:6.54449;stroke-linecap:butt;stroke-linejoin:miter;stroke-miterlimit:4;stroke-dasharray:none;stroke-dashoffset:0;stroke-opacity:1;paint-order:stroke markers fill;color-rendering:auto;image-rendering:auto;shape-rendering:auto;text-rendering:auto;enable-background:accumulate"
             d="m 918.4375,565.07227 c -6.67363,0 -12.1543,5.47871 -12.1543,12.15234 0,6.67363 5.48067,12.1543 12.1543,12.1543 6.67363,0 12.15234,-5.48067 12.15234,-12.1543 0,-6.67363 -5.47871,-12.15234 -12.15234,-12.15234 z m 0,6.54296 c 3.13672,0 5.60938,2.47266 5.60938,5.60938 0,3.13672 -2.47266,5.60937 -5.60938,5.60937 -3.13672,0 -5.60938,-2.47265 -5.60938,-5.60937 0,-3.13672 2.47266,-5.60938 5.60938,-5.60938 z"
             id="path143" />
          <path
             style="color:#000000;font-style:normal;font-variant:normal;font-weight:normal;font-stretch:normal;font-size:medium;line-height:normal;font-family:sans-serif;font-variant-ligatures:normal;font-variant-position:normal;font-variant-caps:normal;font-variant-numeric:normal;font-variant-alternates:normal;font-variant-east-asian:normal;font-feature-settings:normal;text-indent:0;text-align:start;text-decoration:none;text-decoration-line:none;text-decoration-style:solid;text-decoration-color:#000000;letter-spacing:normal;word-spacing:normal;text-transform:none;writing-mode:lr-tb;direction:ltr;text-orientation:mixed;dominant-baseline:auto;baseline-shift:baseline;text-anchor:start;white-space:normal;shape-padding:0;clip-rule:nonzero;display:inline;overflow:visible;visibility:visible;opacity:1;isolation:auto;mix-blend-mode:normal;color-interpolation:sRGB;color-interpolation-filters:linearRGB;solid-color:#000000;solid-opacity:1;vector-effect:none;fill:#ffffff;fill-opacity:1;fill-rule:evenodd;stroke:none;stroke-width:6.54449;stroke-linecap:butt;stroke-linejoin:miter;stroke-miterlimit:4;stroke-dasharray:none;stroke-dashoffset:0;stroke-opacity:1;paint-order:stroke markers fill;color-rendering:auto;image-rendering:auto;shape-rendering:auto;text-rendering:auto;enable-background:accumulate"
             d="m 927.3185,577.22522 c 0,4.90518 -3.97643,8.88161 -8.88161,8.88161 -4.90518,0 -8.88161,-3.97643 -8.88161,-8.88161 0,-4.90518 3.97643,-8.88161 8.88161,-8.88161 4.90518,0 8.88161,3.97643 8.88161,8.88161 z"
             id="path144" />
        </g>
        <circle
           style="opacity:1;vector-effect:none;fill:#000000;fill-opacity:1;fill-rule:evenodd;stroke:none;stroke-width:6.54449;stroke-miterlimit:4;stroke-dasharray:none;paint-order:stroke markers fill"
           id="circle144"
           cx="1299.6318"
           cy="877.18506"
           r="4.6067514" />
        <circle
           r="3.3996043"
           cy="874.11279"
           cx="1302.7849"
           id="circle145"
           style="opacity:1;vector-effect:none;fill:#f9f9f9;fill-opacity:1;fill-rule:evenodd;stroke:none;stroke-width:6.54449;stroke-miterlimit:4;stroke-dasharray:none;paint-order:stroke markers fill" />
        <g
           id="g146"
           transform="translate(380.04122,299.69025)">
          <path
             style="color:#000000;font-style:normal;font-variant:normal;font-weight:normal;font-stretch:normal;font-size:medium;line-height:normal;font-family:sans-serif;font-variant-ligatures:normal;font-variant-position:normal;font-variant-caps:normal;font-variant-numeric:normal;font-variant-alternates:normal;font-variant-east-asian:normal;font-feature-settings:normal;text-indent:0;text-align:start;text-decoration:none;text-decoration-line:none;text-decoration-style:solid;text-decoration-color:#000000;letter-spacing:normal;word-spacing:normal;text-transform:none;writing-mode:lr-tb;direction:ltr;text-orientation:mixed;dominant-baseline:auto;baseline-shift:baseline;text-anchor:start;white-space:normal;shape-padding:0;clip-rule:nonzero;display:inline;overflow:visible;visibility:visible;opacity:1;isolation:auto;mix-blend-mode:normal;color-interpolation:sRGB;color-interpolation-filters:linearRGB;solid-color:#000000;solid-opacity:1;vector-effect:none;fill:#000000;fill-opacity:1;fill-rule:evenodd;stroke:none;stroke-width:6.54449;stroke-linecap:butt;stroke-linejoin:miter;stroke-miterlimit:4;stroke-dasharray:none;stroke-dashoffset:0;stroke-opacity:1;paint-order:stroke markers fill;color-rendering:auto;image-rendering:auto;shape-rendering:auto;text-rendering:auto;enable-background:accumulate"
             d="m 937.00781,563.45703 c -8.45733,0 -15.38281,6.92549 -15.38281,15.38281 0,8.45733 6.92548,15.38282 15.38281,15.38282 8.45733,0 15.38282,-6.92549 15.38281,-15.38282 0,-8.45732 -6.92548,-15.38281 -15.38281,-15.38281 z m 0,6.54492 c 4.92043,0 8.83789,3.91747 8.83789,8.83789 0,4.92043 -3.91746,8.83985 -8.83789,8.83985 -4.92042,0 -8.83984,-3.91942 -8.83984,-8.83985 0,-4.92042 3.91942,-8.83789 8.83984,-8.83789 z"
             id="path145" />
          <path
             style="color:#000000;font-style:normal;font-variant:normal;font-weight:normal;font-stretch:normal;font-size:medium;line-height:normal;font-family:sans-serif;font-variant-ligatures:normal;font-variant-position:normal;font-variant-caps:normal;font-variant-numeric:normal;font-variant-alternates:normal;font-variant-east-asian:normal;font-feature-settings:normal;text-indent:0;text-align:start;text-decoration:none;text-decoration-line:none;text-decoration-style:solid;text-decoration-color:#000000;letter-spacing:normal;word-spacing:normal;text-transform:none;writing-mode:lr-tb;direction:ltr;text-orientation:mixed;dominant-baseline:auto;baseline-shift:baseline;text-anchor:start;white-space:normal;shape-padding:0;clip-rule:nonzero;display:inline;overflow:visible;visibility:visible;opacity:1;isolation:auto;mix-blend-mode:normal;color-interpolation:sRGB;color-interpolation-filters:linearRGB;solid-color:#000000;solid-opacity:1;vector-effect:none;fill:#ffffff;fill-opacity:1;fill-rule:evenodd;stroke:none;stroke-width:6.54449;stroke-linecap:butt;stroke-linejoin:miter;stroke-miterlimit:4;stroke-dasharray:none;stroke-dashoffset:0;stroke-opacity:1;paint-order:stroke markers fill;color-rendering:auto;image-rendering:auto;shape-rendering:auto;text-rendering:auto;enable-background:accumulate"
             d="m 949.11885,578.84009 c 0,6.68887 -5.42241,12.11128 -12.11128,12.11128 -6.68888,0 -12.11128,-5.42241 -12.11128,-12.11128 0,-6.68888 5.4224,-12.11128 12.11128,-12.11128 6.68887,0 12.11128,5.4224 12.11128,12.11128 z"
             id="path146" />
        </g>
        <circle
           r="6.2718406"
           cy="878.53033"
           cx="1319.1837"
           id="circle146"
           style="opacity:1;vector-effect:none;fill:#000000;fill-opacity:1;fill-rule:evenodd;stroke:none;stroke-width:6.54449;stroke-miterlimit:4;stroke-dasharray:none;paint-order:stroke markers fill" />
        <circle
           r="3.6298697"
           cy="874.99646"
           cx="1322.866"
           id="circle147"
           style="opacity:1;vector-effect:none;fill:#f9f9f9;fill-opacity:1;fill-rule:evenodd;stroke:none;stroke-width:6.54449;stroke-miterlimit:4;stroke-dasharray:none;paint-order:stroke markers fill" />
      </g>
    </g>
    <g
       id="g16-6"
       transform="matrix(0.3186781,0,0,0.3186781,-199.98304,124.05042)">
      <g
         style="fill:#999999;stroke:none;stroke-width:0.983384"
         id="g2"
         transform="matrix(1.25,0,0,-1.2925975,972.10905,550.22187)">
        <path
           sodipodi:nodetypes="cccccccccc"
           inkscape:connector-curvature="0"
           id="path1-7"
           d="m -29.154476,-53.505432 c -13.768026,0.208683 -24.444447,7.709617 -29.650229,9.884024 -0.857972,0.581405 2.730477,0.774131 2.429705,1.765939 -0.817393,2.696473 -3.997632,6.622671 -4.021763,10.169086 0.034,3.137385 9.606984,5.870664 8.199497,10.777901 -2.613085,5.006641 -2.223981,16.6888725 7.055294,23.0186978 3.009189,-10.2756709 7.848023,-19.2637528 16.920757,-19.4999988 15.21119,0.57963 24.9442129,17.79283125 28.01799098,24.1974853 C 16.150326,-7.8865989 5.898522,-39.943992 -6.8905799,-48.032087 -12.664658,-50.205576 -23.197538,-53.403215 -29.154476,-53.505432 Z"
           style="fill:#000000;stroke:none;stroke-width:5.90031;stroke-linecap:butt;stroke-linejoin:miter;stroke-miterlimit:10;stroke-dasharray:none;stroke-opacity:1" />
      </g>
      <g
         transform="translate(13.464152,505.95939)"
         id="g5-5">
        <path
           inkscape:connector-curvature="0"
           d="m 899.43659,137.88685 c -1.11099,0.5555 -2.27488,0.87292 -3.2007,0.87292 -3.01554,0 -5.29042,-2.30133 -5.29042,-5.34332 0,-3.01554 2.24843,-5.31687 5.23751,-5.31687 1.69294,0 3.57104,0.79356 4.89364,2.03681 l 2.75102,-3.38587 c -1.90455,-1.69293 -4.84074,-2.75102 -7.6182,-2.75102 -5.87237,0 -10.23696,4.02072 -10.23696,9.41695 0,5.39622 4.25878,9.46984 9.91953,9.46984 2.59231,0 5.7401,-1.00517 7.72401,-2.38068 v -7.30078 h -4.17943 z"
           style="font-style:normal;font-variant:normal;font-weight:bold;font-stretch:normal;font-size:40px;line-height:32.195px;font-family:Montserrat;-inkscape-font-specification:'Montserrat Bold';letter-spacing:0px;word-spacing:0px;fill:#000000;fill-opacity:1;stroke:none;stroke-width:0.9375px;stroke-linecap:butt;stroke-linejoin:miter;stroke-opacity:1"
           id="path2-3" />
        <path
           inkscape:connector-curvature="0"
           d="m 911.63596,124.13176 h -4.84073 v 18.54292 h 4.84073 z"
           style="font-style:normal;font-variant:normal;font-weight:bold;font-stretch:normal;font-size:40px;line-height:32.195px;font-family:Montserrat;-inkscape-font-specification:'Montserrat Bold';letter-spacing:0px;word-spacing:0px;fill:#000000;fill-opacity:1;stroke:none;stroke-width:0.9375px;stroke-linecap:butt;stroke-linejoin:miter;stroke-opacity:1"
           id="path3-5" />
        <path
           inkscape:connector-curvature="0"
           d="m 935.63752,124.13176 h -5.29042 l -4.92009,10.81891 -4.92009,-10.81891 h -5.29041 v 18.54292 h 4.31169 v -11.74473 l 4.31168,9.89308 h 3.17425 l 4.31169,-9.89308 0.0265,11.74473 h 4.28524 z"
           style="font-style:normal;font-variant:normal;font-weight:bold;font-stretch:normal;font-size:40px;line-height:32.195px;font-family:Montserrat;-inkscape-font-specification:'Montserrat Bold';letter-spacing:0px;word-spacing:0px;fill:#000000;fill-opacity:1;stroke:none;stroke-width:0.9375px;stroke-linecap:butt;stroke-linejoin:miter;stroke-opacity:1"
           id="path4-6" />
        <path
           inkscape:connector-curvature="0"
           d="m 947.3876,124.13176 h -8.14724 v 18.54292 h 4.84073 v -5.13171 h 3.30651 c 4.73493,0 7.45949,-2.5394 7.45949,-6.90399 0,-4.12653 -2.72456,-6.50722 -7.45949,-6.50722 z m -0.23807,3.86201 c 1.95746,0 3.0949,0.97873 3.0949,2.80392 0,1.8781 -1.13744,2.88328 -3.0949,2.88328 h -3.06844 v -5.6872 z"
           style="font-style:normal;font-variant:normal;font-weight:bold;font-stretch:normal;font-size:40px;line-height:32.195px;font-family:Montserrat;-inkscape-font-specification:'Montserrat Bold';letter-spacing:0px;word-spacing:0px;fill:#000000;fill-opacity:1;stroke:none;stroke-width:0.9375px;stroke-linecap:butt;stroke-linejoin:miter;stroke-opacity:1"
           id="path5-2" />
      </g>
      <g
         transform="matrix(1.25,0,0,-1.25,972.10905,551.07374)"
         id="g6-9"
         style="fill:#999999;stroke:none">
        <path
           inkscape:connector-curvature="0"
           id="path6-1"
           style="fill:#999999;stroke:none;stroke-width:6;stroke-linecap:butt;stroke-linejoin:miter;stroke-miterlimit:10;stroke-dasharray:none;stroke-opacity:1"
           d="M -0.919,-1.1112753 C -12.626967,-15.877202 -19.607056,-21.718155 -30.892653,-19.631702 c -6.707709,1.595669 -9.848756,3.909163 -14.774329,13.2229128 -2.305472,5.6122625 -8.244016,-7.0152438 -3.579732,-14.6086398 0.321193,-9.43979 -18.415657,-10.611839 -16.728862,-16.176357 20.057521,-10.074107 33.42625,-20.6298 55.592226,-8.589425 7.3589315,3.867313 5.7695571,9.754397 9.1906087,13.423968 8.6993416,6.396378 6.9242101,35.3639549 0.2737413,31.2479677 z"
           sodipodi:nodetypes="cccccccc" />
      </g>
      <ellipse
         transform="matrix(0.73293555,-0.68029808,0.64725028,0.76227756,0,0)"
         ry="16.761148"
         rx="12.889563"
         cy="1046.165"
         cx="299.7511"
         id="ellipse6-2"
         style="opacity:1;fill:#000000;fill-opacity:1;fill-rule:evenodd;stroke:none;stroke-width:0.937958;stroke-linejoin:miter;stroke-miterlimit:4;stroke-dasharray:none;stroke-opacity:1" />
      <path
         sodipodi:nodetypes="cccc"
         inkscape:connector-curvature="0"
         id="path7-7"
         d="m 934.40985,606.65707 c 6.9004,-1.31801 20.9313,-4.19716 24.442,-16.07143 2.5246,1.90166 3.0704,9.16424 -2.5637,14.12344 -3.6655,2.48564 -15.4009,1.66687 -21.8783,1.94799 z"
         style="fill:#000000;stroke:none;stroke-width:0.9375px;stroke-linecap:butt;stroke-linejoin:miter;stroke-opacity:1" />
      <path
         sodipodi:nodetypes="ccccccccccccccccc"
         inkscape:connector-curvature="0"
         id="path8-0"
         d="m 956.96755,597.25548 -8.6545,6.4814 c 0,0 4.3554,2.42703 4.3698,2.30766 11.4278,7.33956 20.2791,13.48591 29.6283,19.50622 v -0.10986 c 0.3365,0.15489 1.1536,0.37526 3.1677,0.23621 0.059,0.0315 6.02395,3.21631 9.51045,5.4016 -0.2055,0.58829 -0.3748,1.22446 -0.498,1.91895 -0.8582,4.84068 0.6471,8.89705 3.4625,13.04809 2.2149,3.26561 8.3634,8.82061 17.1991,8.85131 -5.0895,-7.45697 -0.3524,-23.8757 -12.2315,-27.61778 -1.8054,-0.5687 -3.3384,-0.56621 -4.5941,-0.0787 -3.5686,-3.06618 -8.9245,-7.9651 -8.9245,-7.9651 0,0 -0.3777,-2.44728 -4.10475,-4.43576 -8.7235,-6.33716 -18.2869,-11.81821 -27.8121,-16.82418 -0.086,0.0915 -0.1877,0.17955 -0.2819,0.26917 z"
         style="color:#000000;display:inline;overflow:visible;visibility:visible;fill:#000000;fill-opacity:1;fill-rule:nonzero;stroke:none;stroke-width:2.53125;marker:none;enable-background:accumulate" />
      <path
         inkscape:connector-curvature="0"
         id="path9-9"
         d="m 957.54065,601.04392 a 4.0274332,4.0274332 0 0 0 0.5694,0.0769 c 4.8192,2.49332 13.6699,6.79275 25.4425,15.67016 a 4.0274332,4.0274332 0 0 0 0.4633,0.33692 c 0.2467,0.15112 1.1274,0.72563 1.7706,1.14074 0.2935,0.5498 0.635,1.13327 1.2451,2.06359 a 4.0274332,4.0274332 0 0 0 0.15385,0.21424 4.0274332,4.0274332 0 0 0 -0.84225,-0.0311 c -1.1934,0.0824 -1.5854,-0.0241 -1.485,0.0146 a 4.0274332,4.0274332 0 0 0 -0.1209,-0.0476 c -0.8457,-0.51825 -1.3802,-0.84342 -1.734,-1.04187 a 4.0274332,4.0274332 0 0 0 -0.6463,-0.54565 c -11.3422,-7.65249 -20.8058,-13.79122 -26.0376,-17.1698 z"
         style="color:#000000;display:inline;overflow:visible;visibility:visible;fill:#999999;fill-opacity:1;fill-rule:nonzero;stroke:none;stroke-width:2.53125;marker:none;enable-background:accumulate" />
      <path
         inkscape:connector-curvature="0"
         id="path10-3"
         d="m 984.12575,622.02049 v 0.004 c 10e-5,0 0.01,-0.63799 0.01,0.20875 a 4.0274332,4.0274332 0 0 0 -0.01,-0.21241 z"
         style="color:#000000;display:inline;overflow:visible;visibility:visible;fill:#000000;fill-opacity:1;fill-rule:nonzero;stroke:none;stroke-width:2.53125;marker:none;enable-background:accumulate" />
      <path
         inkscape:connector-curvature="0"
         id="path11-6"
         d="m 1001.5335,629.72374 c 0.3054,0.006 0.7292,0.0689 1.3184,0.25452 2.0917,0.65892 3.0719,1.58791 3.9606,3.0725 0.8886,1.4846 1.5092,3.64252 1.9409,6.17797 0.4697,2.75936 0.6455,5.90316 1.2506,9.06006 -3.8111,-1.61828 -6.6,-4.20215 -7.5788,-5.64514 -2.5059,-3.69474 -3.4783,-6.42259 -2.8289,-10.08544 0.086,-0.48575 0.2008,-0.91008 0.3351,-1.29456 a 4.0274332,4.0274332 0 0 0 0.2197,-1.23596 4.0274332,4.0274332 0 0 0 0.7727,-0.21424 c 0.1152,-0.0447 0.3025,-0.096 0.6079,-0.0897 z"
         style="color:#000000;display:inline;overflow:visible;visibility:visible;fill:#999999;fill-opacity:1;fill-rule:nonzero;stroke:none;stroke-width:2.53125;marker:none;enable-background:accumulate" />
      <g
         id="g13-0">
        <path
           style="color:#000000;font-style:normal;font-variant:normal;font-weight:normal;font-stretch:normal;font-size:medium;line-height:normal;font-family:sans-serif;font-variant-ligatures:normal;font-variant-position:normal;font-variant-caps:normal;font-variant-numeric:normal;font-variant-alternates:normal;font-variant-east-asian:normal;font-feature-settings:normal;text-indent:0;text-align:start;text-decoration:none;text-decoration-line:none;text-decoration-style:solid;text-decoration-color:#000000;letter-spacing:normal;word-spacing:normal;text-transform:none;writing-mode:lr-tb;direction:ltr;text-orientation:mixed;dominant-baseline:auto;baseline-shift:baseline;text-anchor:start;white-space:normal;shape-padding:0;clip-rule:nonzero;display:inline;overflow:visible;visibility:visible;opacity:1;isolation:auto;mix-blend-mode:normal;color-interpolation:sRGB;color-interpolation-filters:linearRGB;solid-color:#000000;solid-opacity:1;vector-effect:none;fill:#000000;fill-opacity:1;fill-rule:evenodd;stroke:none;stroke-width:6.54449;stroke-linecap:butt;stroke-linejoin:miter;stroke-miterlimit:4;stroke-dasharray:none;stroke-dashoffset:0;stroke-opacity:1;paint-order:stroke markers fill;color-rendering:auto;image-rendering:auto;shape-rendering:auto;text-rendering:auto;enable-background:accumulate"
           d="m 918.4375,565.07227 c -6.67363,0 -12.1543,5.47871 -12.1543,12.15234 0,6.67363 5.48067,12.1543 12.1543,12.1543 6.67363,0 12.15234,-5.48067 12.15234,-12.1543 0,-6.67363 -5.47871,-12.15234 -12.15234,-12.15234 z m 0,6.54296 c 3.13672,0 5.60938,2.47266 5.60938,5.60938 0,3.13672 -2.47266,5.60937 -5.60938,5.60937 -3.13672,0 -5.60938,-2.47265 -5.60938,-5.60937 0,-3.13672 2.47266,-5.60938 5.60938,-5.60938 z"
           id="path12-6" />
        <path
           style="color:#000000;font-style:normal;font-variant:normal;font-weight:normal;font-stretch:normal;font-size:medium;line-height:normal;font-family:sans-serif;font-variant-ligatures:normal;font-variant-position:normal;font-variant-caps:normal;font-variant-numeric:normal;font-variant-alternates:normal;font-variant-east-asian:normal;font-feature-settings:normal;text-indent:0;text-align:start;text-decoration:none;text-decoration-line:none;text-decoration-style:solid;text-decoration-color:#000000;letter-spacing:normal;word-spacing:normal;text-transform:none;writing-mode:lr-tb;direction:ltr;text-orientation:mixed;dominant-baseline:auto;baseline-shift:baseline;text-anchor:start;white-space:normal;shape-padding:0;clip-rule:nonzero;display:inline;overflow:visible;visibility:visible;opacity:1;isolation:auto;mix-blend-mode:normal;color-interpolation:sRGB;color-interpolation-filters:linearRGB;solid-color:#000000;solid-opacity:1;vector-effect:none;fill:#ffffff;fill-opacity:1;fill-rule:evenodd;stroke:none;stroke-width:6.54449;stroke-linecap:butt;stroke-linejoin:miter;stroke-miterlimit:4;stroke-dasharray:none;stroke-dashoffset:0;stroke-opacity:1;paint-order:stroke markers fill;color-rendering:auto;image-rendering:auto;shape-rendering:auto;text-rendering:auto;enable-background:accumulate"
           d="m 927.3185,577.22522 c 0,4.90518 -3.97643,8.88161 -8.88161,8.88161 -4.90518,0 -8.88161,-3.97643 -8.88161,-8.88161 0,-4.90518 3.97643,-8.88161 8.88161,-8.88161 4.90518,0 8.88161,3.97643 8.88161,8.88161 z"
           id="path13-2" />
      </g>
      <circle
         style="opacity:1;vector-effect:none;fill:#000000;fill-opacity:1;fill-rule:evenodd;stroke:none;stroke-width:6.54449;stroke-miterlimit:4;stroke-dasharray:none;paint-order:stroke markers fill"
         id="circle13-6"
         cx="919.73108"
         cy="577.69818"
         r="3.9881155" />
      <g
         id="g15-1">
        <path
           style="color:#000000;font-style:normal;font-variant:normal;font-weight:normal;font-stretch:normal;font-size:medium;line-height:normal;font-family:sans-serif;font-variant-ligatures:normal;font-variant-position:normal;font-variant-caps:normal;font-variant-numeric:normal;font-variant-alternates:normal;font-variant-east-asian:normal;font-feature-settings:normal;text-indent:0;text-align:start;text-decoration:none;text-decoration-line:none;text-decoration-style:solid;text-decoration-color:#000000;letter-spacing:normal;word-spacing:normal;text-transform:none;writing-mode:lr-tb;direction:ltr;text-orientation:mixed;dominant-baseline:auto;baseline-shift:baseline;text-anchor:start;white-space:normal;shape-padding:0;clip-rule:nonzero;display:inline;overflow:visible;visibility:visible;opacity:1;isolation:auto;mix-blend-mode:normal;color-interpolation:sRGB;color-interpolation-filters:linearRGB;solid-color:#000000;solid-opacity:1;vector-effect:none;fill:#000000;fill-opacity:1;fill-rule:evenodd;stroke:none;stroke-width:6.54449;stroke-linecap:butt;stroke-linejoin:miter;stroke-miterlimit:4;stroke-dasharray:none;stroke-dashoffset:0;stroke-opacity:1;paint-order:stroke markers fill;color-rendering:auto;image-rendering:auto;shape-rendering:auto;text-rendering:auto;enable-background:accumulate"
           d="m 937.00781,563.45703 c -8.45733,0 -15.38281,6.92549 -15.38281,15.38281 0,8.45733 6.92548,15.38282 15.38281,15.38282 8.45733,0 15.38282,-6.92549 15.38281,-15.38282 0,-8.45732 -6.92548,-15.38281 -15.38281,-15.38281 z m 0,6.54492 c 4.92043,0 8.83789,3.91747 8.83789,8.83789 0,4.92043 -3.91746,8.83985 -8.83789,8.83985 -4.92042,0 -8.83984,-3.91942 -8.83984,-8.83985 0,-4.92042 3.91942,-8.83789 8.83984,-8.83789 z"
           id="path14-8" />
        <path
           style="color:#000000;font-style:normal;font-variant:normal;font-weight:normal;font-stretch:normal;font-size:medium;line-height:normal;font-family:sans-serif;font-variant-ligatures:normal;font-variant-position:normal;font-variant-caps:normal;font-variant-numeric:normal;font-variant-alternates:normal;font-variant-east-asian:normal;font-feature-settings:normal;text-indent:0;text-align:start;text-decoration:none;text-decoration-line:none;text-decoration-style:solid;text-decoration-color:#000000;letter-spacing:normal;word-spacing:normal;text-transform:none;writing-mode:lr-tb;direction:ltr;text-orientation:mixed;dominant-baseline:auto;baseline-shift:baseline;text-anchor:start;white-space:normal;shape-padding:0;clip-rule:nonzero;display:inline;overflow:visible;visibility:visible;opacity:1;isolation:auto;mix-blend-mode:normal;color-interpolation:sRGB;color-interpolation-filters:linearRGB;solid-color:#000000;solid-opacity:1;vector-effect:none;fill:#ffffff;fill-opacity:1;fill-rule:evenodd;stroke:none;stroke-width:6.54449;stroke-linecap:butt;stroke-linejoin:miter;stroke-miterlimit:4;stroke-dasharray:none;stroke-dashoffset:0;stroke-opacity:1;paint-order:stroke markers fill;color-rendering:auto;image-rendering:auto;shape-rendering:auto;text-rendering:auto;enable-background:accumulate"
           d="m 949.11885,578.84009 c 0,6.68887 -5.42241,12.11128 -12.11128,12.11128 -6.68888,0 -12.11128,-5.42241 -12.11128,-12.11128 0,-6.68888 5.4224,-12.11128 12.11128,-12.11128 6.68887,0 12.11128,5.4224 12.11128,12.11128 z"
           id="path15-7" />
      </g>
      <circle
         r="6.2718406"
         cy="578.84003"
         cx="939.1427"
         id="circle15-9"
         style="opacity:1;vector-effect:none;fill:#000000;fill-opacity:1;fill-rule:evenodd;stroke:none;stroke-width:6.54449;stroke-miterlimit:4;stroke-dasharray:none;paint-order:stroke markers fill" />
      <path
         sodipodi:nodetypes="ccc"
         inkscape:connector-curvature="0"
         id="path16-2"
         d="m 928.18345,558.2859 c 4.6576,-9.19441 19.9202,-0.13398 24.2225,3.22967 -8.0496,-2.6378 -13.7507,-4.657 -24.2225,-3.22967 z"
         style="fill:#000000;stroke:#000000;stroke-width:0.9375px;stroke-linecap:butt;stroke-linejoin:miter;stroke-opacity:1" />
    </g>
    <g
       id="g11174" />
  </g>
</svg>
